2015-01-22 20:38:31,Albert,Carter,acarter0@opera.com,36.28194,126.9125,143.145.64.97
2015-01-07 21:14:10,Sarah,Franklin,sfranklin1@nymag.com,30.13224,107.72071,249.171.93.115
2015-01-30 08:06:39,Martin,Lynch,mlynch2@chicagotribune.com,51.85889,79.47444,1.202.109.214
2015-01-20 10:37:12,Paula,Wallace,pwallace3@answers.com,23.7199,117.17103,175.20.243.81
2015-01-14 04:08:44,Gregory,Hunter,ghunter4@yale.edu,-20.07028,-44.30167,3.212.66.90
2015-01-09 15:51:36,Victor,Lane,vlane5@hp.com,58.1393,52.658,89.130.19.222
2015-01-20 13:25:49,Maria,Diaz,mdiaz6@feedburner.com,60.71611,-135.05375,137.23.165.159
2015-01-18 15:34:53,Bruce,Stephens,bstephens7@1und1.de,34.46667,135.36667,250.99.47.16
2015-01-21 18:07:47,Lawrence,Brown,lbrown8@si.edu,23.34376,114.1171,216.1.120.218
2015-01-29 03:36:33,Terry,Gibson,tgibson9@jugem.jp,59.0583,16.5878,54.118.50.14
2015-01-04 18:07:08,Christina,Lee,cleea@blogtalkradio.com,29.95175,121.50606,212.214.32.24
2015-01-22 00:46:36,Richard,Jacobs,rjacobsb@t.co,41.3667,-8.5667,205.55.41.120
2015-01-04 11:11:04,Joan,Castillo,jcastilloc@about.me,34.39627,132.45937,167.97.37.245
2015-01-24 07:30:45,Janet,Shaw,jshawd@cyberchimps.com,39.03385,125.75432,117.144.239.138
2015-01-17 19:26:44,Alan,Campbell,acampbelle@latimes.com,52.41362,17.91926,107.117.208.212
2015-01-15 20:49:21,Bonnie,Jackson,bjacksonf@aol.com,8.77528,124.80222,159.68.25.54
2015-01-05 21:16:54,Philip,Hansen,phanseng@bloglovin.com,31.96687,34.99425,81.57.60.196
2015-01-23 06:07:59,Douglas,Perez,dperezh@twitpic.com,34.39951,69.16705,154.72.231.243
2015-01-22 00:21:58,Stephanie,Johnston,sjohnstoni@purevolume.com,9.23877,117.9946,228.161.13.102
2015-01-11 18:50:27,Ernest,Walker,ewalkerj@youtu.be,19.25011,110.07545,213.149.195.79
2015-01-25 08:46:34,Sarah,Ellis,sellisk@ox.ac.uk,40.3667,-8.475,206.80.13.87
2015-01-24 07:27:54,Larry,Carter,lcarterl@geocities.jp,22.73738,106.15216,151.212.152.93
2015-01-14 09:16:14,Virginia,Marshall,vmarshallm@prweb.com,51.80333,15.71702,214.121.45.227
2015-01-22 02:50:56,Larry,Chapman,lchapmann@yandex.ru,41.9,-8.5367,205.73.233.134
2015-01-29 04:59:48,David,Hudson,dhudsono@dropbox.com,2.25139,34.25012,105.113.93.131
2015-01-05 13:20:22,Wanda,Crawford,wcrawfordp@ameblo.jp,64.41667,27.83333,143.75.40.114
2015-01-24 01:55:07,Peter,Hall,phallq@accuweather.com,7.11444,124.59528,63.180.57.54
2015-01-06 13:37:25,Emily,Howard,ehowardr@thetimes.co.uk,49.54709,16.57357,233.150.105.194
2015-01-13 15:04:38,Michael,Hayes,mhayess@ebay.co.uk,48.65803,30.81821,180.52.167.254
2015-01-03 20:05:00,Sandra,Cook,scookt@ted.com,52.378,1.5774,246.138.82.29
2015-01-20 21:39:16,Gary,Meyer,gmeyeru@ycombinator.com,41.5571,-8.306,177.103.27.136
2015-01-02 13:10:07,Anna,Romero,aromerov@stumbleupon.com,21.62254,105.18462,151.96.243.210
2015-01-20 23:10:03,Jeremy,Ford,jfordw@desdev.cn,24.09111,115.44758,64.223.165.124
2015-01-29 03:14:06,Keith,Kelly,kkellyx@forbes.com,45.7625,106.27083,19.62.102.98
2015-01-12 15:27:46,Albert,Romero,aromeroy@phoca.cz,-21.71028,-47.47806,45.32.194.202
2015-01-02 08:06:41,Stephen,Gardner,sgardnerz@cdbaby.com,53.5336,119.45269,178.206.88.60
2015-01-07 22:06:17,Theresa,Elliott,telliott10@google.fr,-8.0838,113.8413,130.14.19.89
2015-01-04 06:04:50,Mary,Ross,mross11@elpais.com,32.99233,36.06018,199.167.207.122
2015-01-09 06:06:11,Debra,Young,dyoung12@ycombinator.com,-0.22985,-78.52495,112.140.141.24
2015-01-01 12:00:32,Brian,Morris,bmorris13@nytimes.com,7.15444,125.05583,88.29.173.126
2015-01-13 21:22:38,Alan,Lawson,alawson14@google.nl,49.98001,23.55848,6.189.192.29
2015-01-23 17:00:42,Sandra,Lewis,slewis15@e-recht24.de,33.59,-4.19,124.187.221.202
2015-01-27 14:51:54,Michael,Carter,mcarter16@senate.gov,18.09333,120.76972,201.188.84.133
2015-01-18 02:11:18,Jean,Jacobs,jjacobs17@csmonitor.com,34.734,-86.5229,28.184.165.91
2015-01-19 13:30:18,Gary,Graham,ggraham18@aboutads.info,15.80137,120.64102,222.66.21.62
2015-01-25 00:38:41,Lawrence,Carpenter,lcarpenter19@hc360.com,15.86667,-87.9,251.181.21.162
2015-01-10 05:33:11,Joan,Wheeler,jwheeler1a@slashdot.org,-8.144,111.4392,112.198.177.150
2015-01-15 23:09:28,Craig,Lee,clee1b@purevolume.com,40.69917,19.57444,34.156.19.99
2015-01-02 20:02:01,Michelle,Peters,mpeters1c@netvibes.com,20.9658,-101.5583,33.108.168.202
2015-01-05 18:47:07,Katherine,Riley,kriley1d@tumblr.com,40.7583,-8.0333,196.181.16.75
2015-01-16 00:52:01,Thomas,Bowman,tbowman1e@nationalgeographic.com,34.44674,109.46073,188.231.208.216
2015-01-11 18:21:44,Justin,Payne,jpayne1f@mail.ru,5.88333,-57.13333,206.139.68.183
2015-01-26 16:59:31,Joan,Stewart,jstewart1g@mapquest.com,-8.2661,113.3074,112.55.211.91
2015-01-08 15:25:56,Anne,Hansen,ahansen1h@ucoz.com,14.47418,100.12218,200.101.228.185
2015-01-16 22:21:33,Sarah,Boyd,sboyd1i@tamu.edu,19.4964,-103.3758,124.4.115.107
2015-01-29 06:35:30,Robert,Kennedy,rkennedy1j@jigsy.com,-7.4287,108.3966,60.184.143.186
2015-01-19 03:47:19,Matthew,Ray,mray1k@mayoclinic.com,-17.35306,-70.13194,156.118.148.107
2015-01-22 13:07:54,Mark,Willis,mwillis1l@jugem.jp,29.55918,113.87294,233.230.18.52
2015-01-05 01:28:52,Phillip,Mendoza,pmendoza1m@blog.com,-8.6028,121.8186,210.142.63.207
2015-01-09 20:13:29,Lois,Sanders,lsanders1n@wikimedia.org,57.7072,11.9668,135.248.112.179
2015-01-08 16:35:35,Ruth,Burton,rburton1o@phpbb.com,55.88333,37.5,221.62.88.16
2015-01-12 14:31:12,Carolyn,Hicks,chicks1p@nifty.com,52.2017,-0.8852,16.70.27.58
2015-01-29 09:58:38,Lillian,Gomez,lgomez1q@mediafire.com,49.5176,14.27809,167.136.95.199
2015-01-01 05:07:39,Michelle,Anderson,manderson1r@wikipedia.org,-1.68222,-50.48028,105.148.11.195
2015-01-29 22:35:07,Roger,Montgomery,rmontgomery1s@google.cn,-6.3853,106.0844,179.241.25.44
2015-01-07 07:31:45,Albert,Stevens,astevens1t@devhub.com,9.741,123.5098,64.95.254.160
2015-01-11 13:20:04,Rachel,Jones,rjones1u@businessinsider.com,29.34658,115.88691,80.76.151.160
2015-01-08 23:34:45,Annie,Weaver,aweaver1v@aboutads.info,-8.6329,115.284,206.81.235.192
2015-01-14 21:31:46,Maria,Gray,mgray1w@sfgate.com,-23.83322,30.16351,222.189.76.124
2015-01-12 21:51:58,Raymond,Adams,radams1x@ning.com,38.02578,114.62628,134.27.158.89
2015-01-21 08:24:03,Denise,Smith,dsmith1y@thetimes.co.uk,36.8282,-76.0237,46.27.13.80
2015-01-01 17:19:35,Joan,Lopez,jlopez1z@dedecms.com,4.85763,6.64519,15.183.225.162
2015-01-08 15:55:22,Keith,Boyd,kboyd20@addtoany.com,-6.7328,111.4675,209.53.141.78
2015-01-01 20:28:25,Anne,Boyd,aboyd21@ucoz.ru,-6.5483,105.9235,14.44.19.191
2015-01-14 18:11:12,Virginia,Perez,vperez22@gravatar.com,36.04043,107.37264,70.92.204.179
2015-01-15 01:17:43,Paula,White,pwhite23@reuters.com,-8.0603,111.8254,219.205.23.92
2015-01-25 18:46:21,Alan,Bryant,abryant24@naver.com,-9.70553,-76.70206,99.190.23.153
2015-01-11 13:39:17,Julia,Woods,jwoods25@whitehouse.gov,59.2667,17.2167,183.128.43.2
2015-01-15 09:28:33,Laura,Spencer,lspencer26@microsoft.com,4.66115,119.39647,164.28.194.223
2015-01-09 20:52:01,Carolyn,James,cjames27@oakley.com,48.782,2.1939,199.156.252.74
2015-01-08 02:02:15,Jack,Greene,jgreene28@cbsnews.com,44.46209,18.74941,58.144.209.124
2015-01-13 21:55:01,Harry,James,hjames29@xinhuanet.com,20.9658,-101.3244,217.142.16.142
2015-01-16 06:15:51,Victor,Garrett,vgarrett2a@va.gov,16.03972,104.66939,62.130.59.20
2015-01-23 05:57:29,Gary,Thomas,gthomas2b@angelfire.com,-7.046,112.3782,174.10.250.245
2015-01-12 21:33:46,Janet,Lewis,jlewis2c@who.int,54.03591,19.0266,132.58.142.171
2015-01-17 09:43:40,Annie,Reid,areid2d@indiegogo.com,1.83606,-75.85498,219.33.205.90
2015-01-16 09:57:06,Howard,Gonzalez,hgonzalez2e@vk.com,41.2833,-8.3667,175.163.219.149
2015-01-21 23:04:20,Phyllis,Kennedy,pkennedy2f@php.net,36.0807,-80.0244,201.6.43.36
2015-01-17 17:48:14,Bobby,Richardson,brichardson2g@guardian.co.uk,7.87377,5.07692,94.9.130.134
2015-01-19 15:32:35,Lisa,Frazier,lfrazier2h@merriam-webster.com,32.40792,35.70802,242.11.220.150
2015-01-05 06:55:09,Steve,Jenkins,sjenkins2i@wunderground.com,30.44523,114.4486,7.140.125.189
2015-01-07 22:14:14,Juan,Watson,jwatson2j@php.net,43.19694,17.545,114.84.104.235
2015-01-01 12:33:57,Samuel,Lynch,slynch2k@bloomberg.com,36.71667,140.71667,225.248.39.70
2015-01-29 22:40:23,David,Ray,dray2l@discovery.com,41.1439,29.0906,236.126.28.242
2015-01-15 20:04:30,Dorothy,Andrews,dandrews2m@bbc.co.uk,12.94861,123.88222,121.177.49.164
2015-01-05 05:31:11,Mildred,Lopez,mlopez2n@soup.io,48.45931,24.24545,92.38.100.227
2015-01-28 17:24:21,Ronald,Smith,rsmith2o@multiply.com,16.51667,-90.16667,63.173.129.133
2015-01-26 02:21:07,Johnny,James,jjames2p@shop-pro.jp,51.05,3.7167,244.137.145.64
2015-01-10 09:45:07,Peter,Fuller,pfuller2q@rakuten.co.jp,31.9497,118.52091,120.36.186.178
2015-01-23 15:58:08,Pamela,Jacobs,pjacobs2r@clickbank.net,-19.96778,-44.19833,126.218.148.122
2015-01-13 11:46:09,Janet,Little,jlittle2s@w3.org,-6.8036,106.3304,124.225.211.113
2015-01-23 23:28:49,Wanda,Reed,wreed2t@1688.com,5.9052,120.9569,51.2.59.90
2015-01-30 07:02:16,Theresa,Hunt,thunt2u@nba.com,39.53479,113.82532,123.96.207.8
2015-01-02 19:27:33,Donald,Chapman,dchapman2v@plala.or.jp,-6.40278,106.77444,45.104.244.121
2015-01-30 22:15:07,Stephanie,Coleman,scoleman2w@miitbeian.gov.cn,8.985,150.1275,146.77.112.139
2015-01-19 02:43:46,Denise,Morales,dmorales2x@nih.gov,6.86667,124.46667,117.167.164.119
2015-01-03 04:18:24,Jane,Martinez,jmartinez2y@stumbleupon.com,30.82969,111.77423,90.76.208.32
2015-01-01 19:55:59,Thomas,Reyes,treyes2z@webmd.com,-23.66333,-52.605,137.6.202.41
2015-01-20 00:31:17,Judy,Fuller,jfuller30@bravesites.com,40.4209,-8.7214,125.103.206.135
2015-01-09 22:55:11,Ruby,Brown,rbrown31@sun.com,31.81,-9.33,184.157.248.68
2015-01-15 11:22:22,Martha,Howell,mhowell32@techcrunch.com,40.59582,122.26719,244.122.8.226
2015-01-08 18:42:48,Timothy,Cole,tcole33@elegantthemes.com,-22.61361,-45.17611,204.167.159.100
2015-01-15 00:40:15,Wanda,Griffin,wgriffin34@newsvine.com,-6.9394,113.5273,98.116.112.51
2015-01-03 12:01:11,Anthony,Hunt,ahunt35@free.fr,-1.36556,-48.37222,178.171.126.183
2015-01-01 07:33:56,Gary,Hanson,ghanson36@nih.gov,8.71278,126.20806,25.58.140.182
2015-01-09 21:47:40,Cynthia,Nelson,cnelson37@si.edu,36.00958,106.27614,103.35.54.188
2015-01-23 06:39:20,Louise,Meyer,lmeyer38@reverbnation.com,39.02003,88.16466,226.167.80.63
2015-01-18 08:35:57,Douglas,Garcia,dgarcia39@cisco.com,24.25,120.71694,237.162.165.137
2015-01-17 04:57:56,Ruth,Hart,rhart3a@mysql.com,48.85,2.5,209.213.127.126
2015-01-16 06:26:53,Margaret,Sims,msims3b@xrea.com,-0.68174,34.76666,90.180.193.162
2015-01-20 19:43:34,Frank,Reyes,freyes3c@rakuten.co.jp,-9.9404,124.3147,175.59.239.184
2015-01-12 17:12:20,Fred,Wright,fwright3d@netvibes.com,23.20712,107.6509,182.97.241.212
2015-01-10 13:48:45,Rose,Fernandez,rfernandez3e@technorati.com,41.2833,-7.2014,42.144.9.61
2015-01-27 09:01:12,Martin,Price,mprice3f@umich.edu,-8.9445,121.0593,35.153.15.222
2015-01-24 22:03:11,Clarence,Cole,ccole3g@columbia.edu,50.13546,19.40203,144.18.83.152
2015-01-20 17:07:29,Laura,Reed,lreed3h@yale.edu,14.98808,43.54444,207.172.4.169
2015-01-20 13:31:21,Carlos,Burke,cburke3i@washington.edu,-0.8917,119.8707,123.127.126.238
2015-01-04 14:34:43,Tammy,Rodriguez,trodriguez3j@dyndns.org,13.52278,-16.02778,0.137.71.208
2015-01-24 20:10:49,Phyllis,Harris,pharris3k@cnbc.com,-6.9168,113.166,158.239.8.26
2015-01-28 23:36:47,Patrick,Henry,phenry3l@ftc.gov,18.5212,-95.7092,69.76.160.0
2015-01-25 14:07:53,Joshua,Berry,jberry3m@noaa.gov,61.21667,22.08333,16.221.157.65
2015-01-01 00:43:26,Robin,Moore,rmoore3n@cnbc.com,55.75222,37.61556,6.44.253.45
2015-01-26 08:15:17,Jack,Simmons,jsimmons3o@dmoz.org,-22.28333,44.51667,253.54.75.106
2015-01-12 08:07:50,Donna,Graham,dgraham3p@prlog.org,-10.02389,-76.67917,85.96.70.150
2015-01-12 17:26:56,Sandra,Hayes,shayes3q@ezinearticles.com,58.3478,11.9424,174.196.203.24
2015-01-03 19:15:47,Willie,Stephens,wstephens3r@ehow.com,-16.50741,-151.74913,247.131.235.205
2015-01-15 15:33:41,Beverly,Peters,bpeters3s@1688.com,3.8459,103.1769,185.106.65.60
2015-01-20 05:04:19,Henry,Daniels,hdaniels3t@ihg.com,51.33319,19.10977,33.132.23.27
2015-01-16 02:01:22,Katherine,Sullivan,ksullivan3u@seattletimes.com,8.2864,123.8399,102.131.25.200
2015-01-26 15:00:02,Jack,Burke,jburke3v@dagondesign.com,14.3306,122.4937,217.5.29.175
2015-01-14 10:19:27,Denise,Simmons,dsimmons3w@nymag.com,29.29736,107.15189,254.131.216.245
2015-01-18 20:21:58,Willie,Welch,wwelch3x@qq.com,69.6489,18.9551,177.203.136.142
2015-01-22 11:24:39,Ann,Garcia,agarcia3y@archive.org,51.49074,95.56081,7.6.67.209
2015-01-05 17:23:31,Jimmy,Burke,jburke3z@sphinn.com,56.86667,37.35,72.183.20.217
2015-01-28 15:46:17,Alice,Marshall,amarshall40@mtv.com,42.05,24.55,1.155.123.21
2015-01-16 14:47:32,Anthony,Griffin,agriffin41@booking.com,32.03362,106.65267,188.56.42.22
2015-01-14 13:00:05,Kimberly,Gardner,kgardner42@bing.com,40.31472,45.11139,246.2.34.201
2015-01-30 02:07:46,Marilyn,Powell,mpowell43@google.com.hk,23.03915,113.36274,60.54.67.144
2015-01-08 20:39:56,Catherine,Gomez,cgomez44@trellian.com,-8.7273,122.0223,24.175.40.216
2015-01-13 11:29:34,Nicole,Wilson,nwilson45@sina.com.cn,-20.11667,16.15,203.62.36.133
2015-01-03 14:34:19,Dorothy,Garza,dgarza46@spotify.com,40.74389,19.93528,220.195.237.218
2015-01-07 07:13:23,Wayne,Gonzales,wgonzales47@youtube.com,50.17242,19.52953,130.212.88.109
2015-01-17 22:52:31,Carl,Harvey,charvey48@comcast.net,43.89342,18.37751,47.11.29.18
2015-01-28 15:47:04,Julie,Martin,jmartin49@bandcamp.com,37.33302,121.31842,167.191.97.133
2015-01-03 05:30:07,Earl,Johnston,ejohnston4a@squidoo.com,-16.4,-70.73333,75.255.222.218
2015-01-04 11:34:51,Christopher,Ryan,cryan4b@nih.gov,47.3833,0.6833,113.202.2.107
2015-01-25 12:39:53,Louis,Day,lday4c@hostgator.com,49.91701,19.15237,113.74.95.87
2015-01-06 00:09:24,Joshua,Hanson,jhanson4d@studiopress.com,51.13892,22.84856,114.107.213.86
2015-01-03 17:57:04,Lisa,Willis,lwillis4e@goo.ne.jp,58.5371,15.0365,49.60.19.184
2015-01-01 02:40:23,Craig,Carter,ccarter4f@yandex.ru,33.6493,-86.7057,189.22.40.227
2015-01-14 12:09:55,Carlos,Thomas,cthomas4g@hibu.com,36.39111,139.06083,182.95.142.249
2015-01-20 09:44:06,Christine,Carr,ccarr4h@ask.com,10.45418,7.63678,70.176.156.10
2015-01-17 03:33:31,Jennifer,Perry,jperry4i@ask.com,60.8819,11.5623,14.114.211.230
2015-01-17 11:59:11,Louise,Banks,lbanks4j@upenn.edu,-7.643,108.0879,214.59.27.141
2015-01-16 08:41:39,Janet,King,jking4k@aboutads.info,13.8809,120.91389,237.120.103.147
2015-01-26 10:59:17,Joseph,Gonzales,jgonzales4l@berkeley.edu,17.80459,105.97044,98.17.53.222
2015-01-15 14:44:59,Jason,Phillips,jphillips4m@e-recht24.de,60.80487,25.72964,54.182.4.103
2015-01-02 23:48:09,Phyllis,Gray,pgray4n@latimes.com,29.81832,116.24537,176.118.252.245
2015-01-01 18:18:51,Beverly,Kelley,bkelley4o@stanford.edu,24.03487,114.55531,239.33.243.175
2015-01-09 08:27:51,Philip,Myers,pmyers4p@blinklist.com,33.92232,65.93398,76.21.203.49
2015-01-24 19:49:01,Peter,Thomas,pthomas4q@jalbum.net,-7.147,111.6679,219.149.86.152
2015-01-13 06:18:16,Mildred,Cole,mcole4r@vk.com,49.05351,16.83676,231.199.158.31
2015-01-12 13:20:30,Edward,Morris,emorris4s@nih.gov,20.1001,-96.711,36.11.219.152
2015-01-13 23:31:11,Evelyn,Matthews,ematthews4t@newsvine.com,-7.2196,113.7836,147.67.31.190
2015-01-22 19:43:28,Shirley,Wells,swells4u@nationalgeographic.com,33.10611,130.09056,153.196.69.228
2015-01-29 04:54:46,Jean,Burke,jburke4v@europa.eu,24.45771,89.70802,255.248.106.149
2015-01-30 12:44:15,Bonnie,Thompson,bthompson4w@e-recht24.de,50.10396,19.31568,95.225.98.7
2015-01-13 21:29:15,Joseph,Anderson,janderson4x@over-blog.com,32.2334,-86.2085,104.191.72.159
2015-01-20 14:25:25,Tammy,Knight,tknight4y@accuweather.com,34.7732,109.11149,193.192.131.165
2015-01-18 07:50:30,Clarence,Romero,cromero4z@myspace.com,19.3622,-104.0917,167.116.173.65
2015-01-11 02:48:41,Christopher,Olson,colson50@abc.net.au,11.14652,122.45911,166.18.253.131
2015-01-11 17:54:33,Joshua,Edwards,jedwards51@amazon.co.uk,36.0807,-80.0244,194.56.165.180
2015-01-23 09:03:46,Frances,Hudson,fhudson52@vistaprint.com,31.3258,111.83147,59.46.175.187
2015-01-17 07:51:39,Sandra,Day,sday53@cbslocal.com,10.44905,106.34386,79.75.197.187
2015-01-21 21:23:56,Shirley,Ward,sward54@accuweather.com,31.53436,114.36356,19.10.72.66
2015-01-05 18:42:33,Melissa,Fox,mfox55@gnu.org,40.4833,-7.8667,97.178.162.203
2015-01-21 22:05:53,Jack,Baker,jbaker56@fc2.com,15.59038,121.12454,227.150.177.2
2015-01-07 08:01:30,Sean,Reid,sreid57@ihg.com,48.56101,23.03146,74.192.236.103
2015-01-30 00:42:33,Paul,Smith,psmith58@dell.com,12.34294,-83.67123,97.220.142.57
2015-01-02 07:36:07,Bobby,Watson,bwatson59@hubpages.com,-24.52611,-49.94861,193.153.140.178
2015-01-06 02:59:09,Lillian,Pierce,lpierce5a@eepurl.com,5.5895,95.5145,150.0.27.195
2015-01-08 02:19:39,Edward,Kennedy,ekennedy5b@deviantart.com,-22.41278,-50.57583,77.167.52.136
2015-01-13 04:03:33,Larry,Sullivan,lsullivan5c@chicagotribune.com,29.22153,108.49694,194.25.229.131
2015-01-11 14:49:55,Billy,Ward,bward5d@wufoo.com,6.543,121.8753,122.169.56.212
2015-01-05 21:29:27,Julia,Brooks,jbrooks5e@soup.io,18.75031,-69.63525,208.136.55.42
2015-01-02 09:35:12,Mildred,Cole,mcole5f@networkadvertising.org,-29.23202,-61.76917,6.132.45.23
2015-01-15 17:39:26,Kathryn,Garcia,kgarcia5g@time.com,49.54709,16.57357,194.48.116.212
2015-01-22 07:01:52,Howard,Grant,hgrant5h@dedecms.com,58.4324,58.2562,56.210.53.108
2015-01-10 07:08:59,Frances,Williams,fwilliams5i@rakuten.co.jp,44.53302,19.7625,46.164.147.6
2015-01-27 02:39:45,Mildred,Boyd,mboyd5j@disqus.com,18.90919,-70.74499,198.25.29.41
2015-01-20 11:44:57,Anthony,Perez,aperez5k@skyrock.com,43.6043,1.4437,23.127.183.151
2015-01-01 06:38:16,Judy,Banks,jbanks5l@fema.gov,47.4441,-122.3249,85.83.223.191
2015-01-11 06:07:42,Clarence,Ortiz,cortiz5m@canalblog.com,35.43333,133.33333,17.191.244.140
2015-01-09 16:54:35,Rebecca,Clark,rclark5n@examiner.com,16.18953,100.85958,146.199.247.142
2015-01-25 13:04:17,Christine,Price,cprice5o@gnu.org,26.36144,118.02175,23.22.116.34
2015-01-24 03:49:22,Victor,Smith,vsmith5p@privacy.gov.au,36.05,140.16667,154.73.98.86
2015-01-29 04:10:10,Roy,Lopez,rlopez5q@google.co.uk,-23.02639,-45.55528,63.68.168.232
2015-01-08 05:06:13,Shirley,Martin,smartin5r@google.com.au,14.75,-87.61667,48.53.118.99
2015-01-14 20:19:43,Phillip,Hall,phall5s@tumblr.com,55.7167,13.0167,50.78.211.87
2015-01-12 13:25:57,Eric,Scott,escott5t@flickr.com,40.68963,117.15832,237.39.10.25
2015-01-21 16:59:19,Amanda,Stevens,astevens5u@eventbrite.com,0.1866,30.45393,14.236.105.2
2015-01-24 19:27:25,Gary,Edwards,gedwards5v@sitemeter.com,54.0114,27.2695,226.86.10.61
2015-01-26 03:29:50,Mildred,Fox,mfox5w@china.com.cn,7.2955,80.6356,120.37.90.126
2015-01-15 18:45:35,Christopher,Rice,crice5x@jigsy.com,31.35273,114.98007,156.176.18.84
2015-01-14 01:51:21,Arthur,Fields,afields5y@amazon.com,23.21738,113.95554,40.140.247.191
2015-01-20 15:40:42,Richard,Sanders,rsanders5z@apache.org,8.514,123.2829,194.59.19.75
2015-01-22 16:22:35,Phillip,Bryant,pbryant60@stumbleupon.com,6.122,102.2523,107.90.202.67
2015-01-10 13:49:10,Kenneth,Hudson,khudson61@a8.net,43.97111,15.41139,65.196.53.249
2015-01-06 03:18:24,Debra,Johnston,djohnston62@pcworld.com,16.0567,103.65309,188.146.112.157
2015-01-24 23:00:07,Lawrence,Harper,lharper63@goo.ne.jp,25.30733,115.91029,149.163.29.199
2015-01-06 17:27:27,Bonnie,Scott,bscott64@yandex.ru,50.10944,101.57528,69.40.38.141
2015-01-13 15:41:59,Virginia,Berry,vberry65@barnesandnoble.com,6.6779,-75.81218,52.231.116.63
2015-01-12 07:48:30,Benjamin,Lewis,blewis66@shinystat.com,53.08062,20.45071,185.215.250.98
2015-01-10 22:10:12,Johnny,Wallace,jwallace67@chicagotribune.com,-6.72938,105.91149,59.101.14.62
2015-01-16 00:30:56,Antonio,Weaver,aweaver68@mozilla.org,15.99025,101.06183,65.152.169.1
2015-01-13 05:12:25,Billy,Gardner,bgardner69@wufoo.com,40.87556,113.88389,90.71.163.137
2015-01-15 02:39:23,Christopher,Fowler,cfowler6a@ox.ac.uk,5.9765,116.1158,18.203.217.136
2015-01-07 10:11:19,Kelly,Ryan,kryan6b@auda.org.au,-7.1252,108.1538,9.29.235.174
2015-01-04 12:44:33,Barbara,Ferguson,bferguson6c@hao123.com,32.69925,35.30483,229.223.198.127
2015-01-08 12:28:44,Frank,Carpenter,fcarpenter6d@google.fr,33.13037,106.55005,100.252.185.179
2015-01-17 16:43:10,Kevin,Robinson,krobinson6e@cam.ac.uk,47.0833,2.4,208.120.72.237
2015-01-23 01:53:16,Jesse,Howell,jhowell6f@is.gd,38.4,-8.7667,100.223.150.66
2015-01-09 06:29:35,Larry,Hamilton,lhamilton6g@last.fm,40.98611,20.5025,190.68.137.228
2015-01-12 08:23:03,Rebecca,Edwards,redwards6h@google.it,56.0313,14.1524,241.183.182.59
2015-01-23 11:04:28,Ralph,Watkins,rwatkins6i@nydailynews.com,55.02219,37.39019,121.56.36.191
2015-01-20 22:37:19,Marilyn,Rice,mrice6j@fotki.com,-36.6,-61.75,39.235.47.33
2015-01-21 14:44:41,Cheryl,Knight,cknight6k@rakuten.co.jp,18.5,-69.9,185.194.246.3
2015-01-15 19:59:10,Julie,Patterson,jpatterson6l@xinhuanet.com,0.17722,31.88111,88.208.166.255
2015-01-11 12:19:16,Dennis,Wallace,dwallace6m@chron.com,-6.8943,112.0528,148.66.60.86
2015-01-17 23:43:38,Rebecca,Davis,rdavis6n@technorati.com,-36.87495,174.66991,25.113.148.28
2015-01-19 23:56:43,Michael,Tucker,mtucker6o@vkontakte.ru,49.9,2.3,37.147.65.14
2015-01-02 08:17:16,Michael,Woods,mwoods6p@icio.us,49.83597,35.61223,208.222.152.35
2015-01-19 16:37:47,Diane,Romero,dromero6q@washington.edu,43.6646,7.1534,66.137.61.6
2015-01-16 14:27:24,Paul,Allen,pallen6r@fda.gov,34.16324,108.65444,155.106.129.35
2015-01-11 07:05:23,Roy,Garza,rgarza6s@cocolog-nifty.com,51.22519,22.78414,59.119.191.151
2015-01-22 10:23:31,John,Parker,jparker6t@phoca.cz,46.43667,15.95361,238.47.110.126
2015-01-14 03:05:44,Adam,Ellis,aellis6u@creativecommons.org,39.8167,-8.8167,199.225.61.165
2015-01-29 07:29:59,Jessica,Cox,jcox6v@noaa.gov,32.92757,119.85832,36.161.239.23
2015-01-17 01:22:30,Edward,Kennedy,ekennedy6w@eepurl.com,12.28333,-14.21667,64.150.56.118
2015-01-19 13:39:10,Philip,Frazier,pfrazier6x@theguardian.com,42.7484,129.19898,148.36.179.66
2015-01-25 16:30:42,Johnny,Bennett,jbennett6y@bizjournals.com,47.4497,-122.3076,209.131.188.85
2015-01-22 03:03:33,Ruth,Riley,rriley6z@oakley.com,-19.76694,-44.08667,149.149.69.86
2015-01-30 12:12:46,Johnny,Lewis,jlewis70@dell.com,-8.4793,123.0902,176.203.104.174
2015-01-08 04:22:43,Roger,Garza,rgarza71@spiegel.de,56.7084,58.0517,42.89.106.174
2015-01-04 23:16:12,Kelly,Sims,ksims72@upenn.edu,7.01667,124.7,115.254.46.199
2015-01-08 12:59:53,Johnny,Wells,jwells73@cyberchimps.com,41.48456,22.09056,133.230.95.158
2015-01-04 08:25:41,Gary,Bishop,gbishop74@g.co,16.58333,121.5,181.131.209.82
2015-01-24 04:00:15,Roy,Gardner,rgardner75@usatoday.com,3.81667,117.25,162.154.68.214
2015-01-26 17:56:54,Mildred,Moore,mmoore76@stanford.edu,46.35611,14.74667,246.178.156.47
2015-01-17 05:19:12,Tina,Flores,tflores77@hhs.gov,10.1492,122.8619,32.167.167.99
2015-01-15 08:11:36,Tammy,Cunningham,tcunningham78@ibm.com,42.35,24.73333,118.153.163.94
2015-01-07 09:58:01,Patricia,Hughes,phughes79@umich.edu,-6.3935,106.101,126.197.163.152
2015-01-19 07:30:29,Kelly,Weaver,kweaver7a@ask.com,18.45962,-77.3357,209.95.170.46
2015-01-18 15:37:43,Robin,James,rjames7b@wiley.com,43.11283,132.354,71.173.210.80
2015-01-23 00:15:04,Debra,Stewart,dstewart7c@reference.com,50.42744,18.92275,241.126.80.19
2015-01-21 22:14:10,Daniel,Mills,dmills7d@bloglovin.com,15.58333,-87.88333,3.72.19.183
2015-01-25 16:44:49,Judith,Ryan,jryan7e@shutterfly.com,22.27085,109.97433,16.183.12.164
2015-01-27 07:35:08,Teresa,Bowman,tbowman7f@ed.gov,45.21244,130.92488,107.132.99.143
2015-01-24 18:43:50,Stephanie,Robinson,srobinson7g@cdbaby.com,-26.23333,-61.85,251.7.243.153
2015-01-02 11:08:41,Louis,Reyes,lreyes7h@blogtalkradio.com,-8.012,112.7103,73.127.157.28
2015-01-21 05:26:12,Doris,Tucker,dtucker7i@cnet.com,-3.5105,120.8844,206.122.18.246
2015-01-18 20:23:37,Jean,Alvarez,jalvarez7j@mozilla.com,28.48947,107.21754,137.249.128.104
2015-01-21 02:57:17,Dorothy,Morris,dmorris7k@telegraph.co.uk,12.9924,124.0169,27.48.116.112
2015-01-13 22:45:37,Theresa,Moore,tmoore7l@bing.com,35.97983,110.82211,21.111.72.42
2015-01-08 21:48:53,Johnny,Carroll,jcarroll7m@jugem.jp,14.16667,-16.83333,133.47.42.223
2015-01-08 05:43:35,Diane,Barnes,dbarnes7n@bluehost.com,49.94426,19.3907,81.47.144.32
2015-01-08 23:32:00,Beverly,Payne,bpayne7o@godaddy.com,-7.0856,108.7124,71.32.53.102
2015-01-26 17:10:01,Ralph,Harvey,rharvey7p@samsung.com,-22.21389,-49.94583,234.120.230.56
2015-01-02 05:05:12,Timothy,Fields,tfields7q@bloglovin.com,45.09556,18.64028,184.204.240.49
2015-01-18 16:11:45,Catherine,Edwards,cedwards7r@51.la,57.6531,14.6968,120.89.35.43
2015-01-19 14:57:24,Kathy,King,kking7s@phoca.cz,15.5952,120.7911,126.146.1.219
2015-01-03 12:26:07,Christopher,Carter,ccarter7t@cam.ac.uk,31.08471,118.19425,170.55.13.244
2015-01-07 20:50:19,Charles,Harvey,charvey7u@tripadvisor.com,44.56717,-80.94349,1.117.13.168
2015-01-21 14:40:06,Phyllis,Ferguson,pferguson7v@odnoklassniki.ru,29.8663,114.31131,93.20.157.166
2015-01-12 19:38:09,Christina,Barnes,cbarnes7w@msu.edu,59.291,17.8121,145.29.166.162
2015-01-06 19:26:15,David,Henry,dhenry7x@hc360.com,26.04144,118.64835,175.80.191.201
2015-01-08 10:16:17,Julie,Lane,jlane7y@bloglines.com,48.2708,119.97994,106.193.177.188
2015-01-16 14:40:40,Richard,Owens,rowens7z@amazon.co.jp,-8.76194,-63.90389,207.6.1.230
2015-01-07 00:05:35,Kelly,Hall,khall80@marriott.com,25.86603,119.14927,219.47.79.214
2015-01-22 23:47:57,Phillip,Jenkins,pjenkins81@youtu.be,39.6083,-8.225,224.112.229.247
2015-01-29 03:27:32,Arthur,Lee,alee82@bloglovin.com,47.76639,29.00111,183.171.138.181
2015-01-08 15:59:12,Amy,Howard,ahoward83@wikia.com,-8.0295,113.2117,195.21.17.158
2015-01-03 01:03:12,Alan,Perry,aperry84@whitehouse.gov,-7.57611,-40.49833,96.166.244.192
2015-01-19 10:55:08,Betty,Washington,bwashington85@noaa.gov,6.42639,101.82308,18.123.63.101
2015-01-04 08:10:27,Stephen,Little,slittle86@sakura.ne.jp,37.78055,126.85004,17.233.168.100
2015-01-21 06:45:48,Angela,Stewart,astewart87@netlog.com,19.66667,-70.76667,54.164.133.57
2015-01-16 21:37:17,Theresa,Schmidt,tschmidt88@nymag.com,59.6553,12.5852,180.211.212.193
2015-01-17 13:39:33,Ronald,Jones,rjones89@trellian.com,-25.39528,-51.45806,248.159.189.244
2015-01-07 10:10:30,Kathleen,Olson,kolson8a@unc.edu,-8.6851,121.9164,22.144.215.61
2015-01-05 09:07:48,Jonathan,Cruz,jcruz8b@ibm.com,-7.2,-78.43333,43.68.118.252
2015-01-10 17:37:58,Rebecca,White,rwhite8c@webeden.co.uk,36.37867,36.99294,41.137.2.246
2015-01-21 03:11:32,Raymond,Brown,rbrown8d@geocities.jp,51.03098,16.76767,43.216.204.236
2015-01-25 00:24:58,Antonio,Perez,aperez8e@tinypic.com,50.49607,26.24111,158.34.142.219
2015-01-16 10:49:15,Michael,Stone,mstone8f@google.it,29.8841,110.45615,0.186.247.51
2015-01-25 12:41:39,Joe,Williams,jwilliams8g@noaa.gov,51.28333,106.5,56.89.48.133
2015-01-19 18:46:02,Eugene,King,eking8h@marketwatch.com,7.53941,-72.77238,5.200.11.194
2015-01-21 15:04:33,Kimberly,Brown,kbrown8i@ca.gov,15.17177,44.32442,59.19.230.195
2015-01-29 19:48:47,Larry,Griffin,lgriffin8j@latimes.com,-7.65194,-40.14889,240.76.218.17
2015-01-15 16:20:37,Wayne,Graham,wgraham8k@xrea.com,-8.64306,126.37833,129.143.166.13
2015-01-30 21:27:20,Kathryn,Diaz,kdiaz8l@so-net.ne.jp,51.85418,18.1743,56.174.225.114
2015-01-28 02:08:20,Bruce,Brooks,bbrooks8m@exblog.jp,19.95931,56.27575,119.158.223.136
2015-01-12 04:15:34,Frances,Woods,fwoods8n@webnode.com,24.71435,118.19538,15.37.169.14
2015-01-13 18:51:28,Evelyn,Sims,esims8o@scientificamerican.com,29.00488,111.73549,168.41.81.62
2015-01-19 17:01:25,Gary,Ross,gross8p@ovh.net,37.96667,23.65,182.195.124.238
2015-01-25 12:52:47,James,Sims,jsims8q@livejournal.com,9.56006,105.98984,177.178.83.254
2015-01-12 00:43:22,Frank,Harrison,fharrison8r@scientificamerican.com,44.1932,41.5529,109.116.102.125
2015-01-30 03:35:20,Margaret,Day,mday8s@reference.com,41.1075,-81.5006,150.75.80.42
2015-01-16 06:22:54,Jonathan,Hawkins,jhawkins8t@scribd.com,44.77583,17.18556,29.99.171.100
2015-01-01 15:56:02,Anthony,Perez,aperez8u@baidu.com,30.65519,111.26882,83.70.100.29
2015-01-16 11:07:39,Harry,Morrison,hmorrison8v@businessinsider.com,7.7102,81.6924,3.147.235.25
2015-01-08 11:10:11,Walter,West,wwest8w@bloglovin.com,42.35,24.11667,54.78.159.35
2015-01-20 20:57:31,Billy,Collins,bcollins8x@dropbox.com,-7.3226,108.3268,85.1.229.55
2015-01-14 02:17:57,Susan,Reynolds,sreynolds8y@about.me,39.35,-9.1167,11.121.126.193
2015-01-25 03:59:01,Jose,Reed,jreed8z@typepad.com,38.2167,-7.5333,116.176.13.75
2015-01-20 02:58:34,Bruce,Bowman,bbowman90@businesswire.com,10.9887,123.9797,117.105.202.124
2015-01-06 06:16:47,Lawrence,Fisher,lfisher91@weibo.com,57.721,12.9401,92.46.137.243
2015-01-13 23:49:29,Arthur,Fields,afields92@reverbnation.com,25.23905,119.09212,232.44.173.239
2015-01-22 13:54:28,Donald,Torres,dtorres93@unblog.fr,-15.8975,-52.25083,7.219.195.174
2015-01-05 09:58:45,Steve,Fisher,sfisher94@yellowbook.com,39.7611,-8.8827,244.240.106.250
2015-01-23 13:14:31,Ruby,Baker,rbaker95@gmpg.org,23.2536,116.47692,239.97.96.82
2015-01-17 13:22:08,Ernest,Mason,emason96@reuters.com,48.91508,16.89779,131.164.103.200
2015-01-26 04:23:54,Craig,Garrett,cgarrett97@comcast.net,49.69512,28.13298,255.180.241.179
2015-01-19 18:44:46,Albert,Russell,arussell98@webmd.com,-6.9997,112.5089,166.216.229.31
2015-01-30 01:49:26,William,Young,wyoung99@telegraph.co.uk,6.59422,3.33748,12.165.24.99
2015-01-18 11:45:11,Margaret,Torres,mtorres9a@chicagotribune.com,9.47855,-66.97458,159.239.153.85
2015-01-18 07:36:00,Steven,Dunn,sdunn9b@dailymotion.com,48.112,-1.6743,26.202.135.33
2015-01-15 09:13:26,Jack,Ward,jward9c@google.it,50.98804,16.83363,245.127.255.35
2015-01-30 02:22:27,Jacqueline,Smith,jsmith9d@phpbb.com,55.88868,37.02421,101.13.175.71
2015-01-28 01:53:24,Tina,Nguyen,tnguyen9e@imageshack.us,32.03611,120.16389,211.81.16.247
2015-01-19 10:17:37,Catherine,Stanley,cstanley9f@cdbaby.com,68.88333,33.01667,69.58.41.82
2015-01-23 08:12:19,Earl,Stewart,estewart9g@ucsd.edu,34.58787,68.95091,78.156.111.216
2015-01-02 10:21:22,Richard,Thompson,rthompson9h@squarespace.com,-20.28194,-45.53944,81.47.83.46
2015-01-19 17:06:32,David,Murray,dmurray9i@tripod.com,-28.51805,27.00933,29.148.216.59
2015-01-27 04:36:24,Joe,Gordon,jgordon9j@wunderground.com,27.0775,111.01944,177.217.236.193
2015-01-08 13:09:47,Donna,Welch,dwelch9k@businessweek.com,44.3526,2.5734,123.203.113.154
2015-01-07 20:39:12,Tina,Daniels,tdaniels9l@businessinsider.com,56.1124,94.5985,222.1.186.214
2015-01-14 05:29:11,Ryan,Olson,rolson9m@europa.eu,29.31033,115.92434,204.147.167.17
2015-01-24 23:54:19,Edward,Griffin,egriffin9n@usda.gov,2.93725,9.90765,249.140.251.171
2015-01-05 06:19:43,Lois,Day,lday9o@github.io,-8.816,120.3027,223.67.227.242
2015-01-10 13:45:17,Rachel,Fuller,rfuller9p@sakura.ne.jp,26.57222,109.30944,159.44.230.3
2015-01-14 22:13:28,Gary,Garrett,ggarrett9q@patch.com,-1.536,102.7211,73.5.134.174
2015-01-08 03:19:46,Christine,Knight,cknight9r@bigcartel.com,44.3526,2.5734,56.156.68.158
2015-01-30 02:23:49,Annie,Stanley,astanley9s@sourceforge.net,47.6333,6.8667,120.89.211.78
2015-01-26 11:00:54,Betty,Wagner,bwagner9t@newyorker.com,18.04279,121.72325,17.33.55.239
2015-01-12 00:15:54,Samuel,Fowler,sfowler9u@bbc.co.uk,6.84526,8.41914,181.196.152.102
2015-01-27 19:30:47,Carolyn,Daniels,cdaniels9v@paypal.com,37.70361,26.90556,209.6.207.33
2015-01-16 20:09:48,Gloria,Montgomery,gmontgomery9w@fema.gov,-7.092,114.323,139.96.26.135
2015-01-04 01:00:32,Aaron,Russell,arussell9x@google.cn,-6.09528,-39.4525,25.232.85.125
2015-01-05 04:47:05,Catherine,Marshall,cmarshall9y@hatena.ne.jp,55.61167,39.57665,248.241.135.164
2015-01-28 19:49:13,Emily,Robinson,erobinson9z@usda.gov,-0.88718,131.23644,228.49.5.221
2015-01-27 05:39:28,Kevin,Wallace,kwallacea0@instagram.com,-5.1875,-37.34417,248.116.195.152
2015-01-02 00:31:45,Rose,Stewart,rstewarta1@sfgate.com,40.4344,-80.0248,101.35.84.69
2015-01-16 21:48:12,Ralph,Schmidt,rschmidta2@hatena.ne.jp,31.38574,121.24465,22.29.134.238
2015-01-09 11:48:19,Juan,Austin,jaustina3@msn.com,45.13424,33.59996,62.24.24.129
2015-01-09 17:26:18,Howard,Knight,hknighta4@infoseek.co.jp,-26.59926,-60.94617,11.200.43.51
2015-01-09 11:55:57,Kenneth,Brown,kbrowna5@ifeng.com,39.0167,-7.0667,70.16.128.226
2015-01-21 09:23:58,Justin,Fowler,jfowlera6@comsenz.com,50.5835,15.41248,34.250.250.40
2015-01-01 07:13:54,Kevin,Anderson,kandersona7@princeton.edu,40.04667,20.1475,136.75.224.217
2015-01-04 09:50:37,Barbara,Hughes,bhughesa8@hud.gov,31.13385,30.12843,164.214.50.8
2015-01-22 01:40:06,Philip,Ward,pwarda9@livejournal.com,26.5479,101.70539,131.143.178.90
2015-01-13 00:07:22,Judy,Patterson,jpattersonaa@123-reg.co.uk,6.87736,-6.45022,113.233.102.238
2015-01-28 17:15:43,David,Patterson,dpattersonab@dailymail.co.uk,42.57495,123.16525,0.30.116.224
2015-01-08 06:20:00,Terry,Harrison,tharrisonac@qq.com,55.60686,37.51991,193.136.126.123
2015-01-30 04:07:20,Andrew,Stone,astonead@oakley.com,35.46028,110.42917,91.82.224.103
2015-01-21 14:27:23,Jacqueline,Gilbert,jgilbertae@i2i.jp,40.95,-8.5,222.178.175.86
2015-01-21 12:04:32,Christine,Lawson,clawsonaf@cnet.com,3.86667,11.51667,128.232.139.122
2015-01-28 03:28:26,Jeremy,Wilson,jwilsonag@cnn.com,-21.21139,-47.59556,105.57.164.185
2015-01-11 19:50:29,Ernest,Collins,ecollinsah@house.gov,41.2083,-8.5292,95.207.85.112
2015-01-15 02:55:30,Jeremy,Fuller,jfullerai@nature.com,43.94193,12.44738,57.50.243.46
2015-01-22 07:47:32,Julie,George,jgeorgeaj@wiley.com,41.2075,-8.583,17.8.216.103
2015-01-28 15:39:34,Billy,Medina,bmedinaak@altervista.org,62.08782,150.52162,198.203.150.228
2015-01-25 18:32:26,Roger,Dixon,rdixonal@hc360.com,-6.8029,111.415,228.120.110.57
2015-01-03 08:18:30,Evelyn,Barnes,ebarnesam@tinypic.com,32.03924,35.10316,11.248.38.161
2015-01-13 15:00:56,Roger,Wells,rwellsan@redcross.org,-6.9516,111.4335,63.124.238.88
2015-01-23 20:46:36,Diane,Alvarez,dalvarezao@creativecommons.org,6.4112,101.27394,245.19.200.164
2015-01-17 10:54:22,Anne,Carpenter,acarpenterap@webmd.com,46.29528,14.80833,140.49.35.5
2015-01-29 15:54:34,Heather,Martin,hmartinaq@usgs.gov,26.20912,118.8787,66.78.76.42
2015-01-18 08:34:51,Shirley,Gibson,sgibsonar@cmu.edu,59.83528,30.14667,36.137.151.238
2015-01-19 11:28:59,Emily,Lee,eleeas@google.com,29.70378,118.30396,209.98.228.186
2015-01-27 22:10:32,Alan,George,ageorgeat@google.com.au,37.85,21.38333,184.206.52.171
2015-01-20 02:31:40,Adam,Sanchez,asanchezau@patch.com,-4.06253,144.06609,253.90.124.237
2015-01-19 09:53:53,Albert,Rogers,arogersav@mit.edu,-8.7307,116.4843,196.180.133.225
2015-01-03 10:12:30,Martin,Rivera,mriveraaw@dailymail.co.uk,-9.9866,120.3316,41.63.31.18
2015-01-28 22:49:39,Catherine,Burke,cburkeax@amazon.de,-7.2489,108.535,61.103.56.83
2015-01-15 15:01:13,Nancy,Collins,ncollinsay@t.co,-12.43002,13.54677,199.163.207.59
2015-01-25 13:43:17,Brian,Chavez,bchavezaz@state.tx.us,48.8333,2.25,189.123.93.75
2015-01-11 23:10:42,Richard,Owens,rowensb0@bbc.co.uk,51.558,-1.7812,95.129.81.1
2015-01-03 12:09:46,Tammy,Rivera,triverab1@go.com,-7.25,-79.48333,242.201.15.102
2015-01-19 12:46:06,Patrick,Carr,pcarrb2@istockphoto.com,51.74098,39.36655,136.80.85.205
2015-01-08 23:17:54,Martin,Graham,mgrahamb3@netscape.com,-20.55722,-48.56778,191.43.34.53
2015-01-19 06:19:56,Carolyn,Wallace,cwallaceb4@sourceforge.net,-8.05637,112.28482,194.10.44.118
2015-01-19 18:36:53,Anna,Montgomery,amontgomeryb5@jimdo.com,53.40953,18.44742,107.33.132.242
2015-01-01 23:44:29,George,Ross,grossb6@w3.org,15.5379,120.6385,243.78.29.0
2015-01-30 02:59:37,James,Schmidt,jschmidtb7@geocities.jp,58.2837,12.2886,100.95.203.217
2015-01-13 20:11:45,Ronald,Romero,rromerob8@usgs.gov,7.99011,5.12096,100.56.151.9
2015-01-17 01:04:54,Ronald,Mcdonald,rmcdonaldb9@tripod.com,39.212,113.35741,183.63.224.141
2015-01-15 23:56:44,Gary,Harrison,gharrisonba@nifty.com,46.31622,123.56094,161.54.5.14
2015-01-08 06:05:21,Gregory,Armstrong,garmstrongbb@phpbb.com,-12.78333,-76.56667,86.17.242.64
2015-01-02 00:23:47,Lillian,Powell,lpowellbc@devhub.com,-31.372,27.04878,115.255.251.154
2015-01-12 16:23:49,Cheryl,Dean,cdeanbd@php.net,39.2853,116.98574,70.185.186.135
2015-01-18 10:10:15,Andrew,Kelly,akellybe@freewebs.com,30.4036,-97.7526,19.252.57.74
2015-01-02 08:56:28,James,Mason,jmasonbf@cbsnews.com,15.9863,120.45192,33.161.129.111
2015-01-20 17:28:48,Robin,Mills,rmillsbg@fotki.com,5.3117,103.1199,146.5.100.158
2015-01-09 02:31:42,Stephen,Rice,sricebh@google.co.uk,35.26056,117.9675,146.91.224.7
2015-01-30 07:06:49,Donald,Powell,dpowellbi@taobao.com,48.76688,-80.68307,243.49.67.210
2015-01-30 01:51:07,Steven,Ross,srossbj@twitpic.com,-7.3862,108.1889,175.41.121.204
2015-01-26 06:17:30,Antonio,Cox,acoxbk@economist.com,30.6589,-88.178,128.69.129.244
2015-01-25 18:47:59,Bruce,Burns,bburnsbl@pagesperso-orange.fr,55.19742,46.32908,220.31.27.122
2015-01-15 18:14:50,Mary,Jackson,mjacksonbm@storify.com,27.92714,116.15487,197.150.34.37
2015-01-30 17:35:20,Daniel,Moreno,dmorenobn@twitter.com,30.59856,115.43579,15.105.120.111
2015-01-19 02:11:04,Anna,Powell,apowellbo@usnews.com,28.97028,107.63539,99.236.111.14
2015-01-10 09:10:31,Margaret,Barnes,mbarnesbp@tmall.com,-35.00014,-61.03508,187.108.137.48
2015-01-12 10:20:18,Jesse,Gutierrez,jgutierrezbq@issuu.com,-8.6126,120.0598,56.11.58.31
2015-01-20 07:51:37,David,Medina,dmedinabr@joomla.org,19.2705,99.97011,5.19.242.3
2015-01-15 00:17:37,Steven,Smith,ssmithbs@virginia.edu,51.91526,-8.18052,3.40.161.18
2015-01-18 18:58:15,Sharon,Hawkins,shawkinsbt@chronoengine.com,-8.604,122.1994,113.41.164.208
2015-01-10 09:22:59,Joshua,Woods,jwoodsbu@rakuten.co.jp,37.3376,113.53926,224.167.209.140
2015-01-04 15:15:11,Ashley,Ortiz,aortizbv@geocities.jp,30.15667,118.6421,213.208.190.212
2015-01-02 17:49:58,Matthew,Nelson,mnelsonbw@squidoo.com,56.2,24.75,193.247.89.90
2015-01-26 23:31:18,Rose,Peters,rpetersbx@google.it,15.08642,107.73577,119.255.132.99
2015-01-14 17:56:09,Patrick,Carter,pcarterby@themeforest.net,29.82,118.04111,241.202.246.106
2015-01-04 18:18:51,Debra,Fox,dfoxbz@histats.com,43.6583,3.97,174.121.72.29
2015-01-23 17:58:55,Debra,Elliott,delliottc0@yahoo.com,39.01573,139.92909,162.238.193.165
2015-01-04 07:48:15,Alan,Banks,abanksc1@multiply.com,28.95454,114.52934,169.133.40.153
2015-01-01 18:16:36,Justin,Washington,jwashingtonc2@etsy.com,50.42675,80.26669,176.21.129.19
2015-01-14 15:59:59,Daniel,Matthews,dmatthewsc3@ca.gov,,,123.85.57.189
2015-01-30 05:00:16,Sarah,Hudson,shudsonc4@blinklist.com,-6.4267,105.9708,12.18.203.60
2015-01-11 23:40:47,Susan,Stephens,sstephensc5@google.fr,58.2751,34.11731,158.110.144.11
2015-01-30 11:49:29,Stephen,Powell,spowellc6@icq.com,-1.536,102.7211,85.194.82.156
2015-01-22 22:10:14,Jose,Woods,jwoodsc7@yolasite.com,-8.44983,124.05402,108.153.41.127
2015-01-22 06:01:32,Arthur,Nguyen,anguyenc8@craigslist.org,28.58333,65.41667,179.24.117.134
2015-01-26 15:09:04,Teresa,Henry,thenryc9@buzzfeed.com,55.985,22.91889,121.177.20.237
2015-01-19 09:14:25,Ronald,Butler,rbutlerca@symantec.com,30.32223,112.06667,218.51.12.126
2015-01-11 19:13:19,Dorothy,Cooper,dcoopercb@va.gov,49.9,2.3,156.44.203.128
2015-01-30 05:43:24,Rachel,Alvarez,ralvarezcc@harvard.edu,16.16003,100.59656,207.137.117.81
2015-01-17 07:35:16,Fred,Owens,fowenscd@army.mil,40.94338,24.17747,229.154.218.115
2015-01-25 14:19:59,Fred,Bell,fbellce@dailymail.co.uk,35.03333,71.35809,194.123.232.35
2015-01-08 17:53:48,Ruth,Henry,rhenrycf@cam.ac.uk,-6.9845,111.7096,194.250.127.173
2015-01-06 04:35:44,Earl,Olson,eolsoncg@europa.eu,51.65078,19.80191,40.149.55.162
2015-01-19 01:32:43,Todd,Bell,tbellch@prlog.org,55.38625,56.65287,79.69.31.131
2015-01-24 14:43:08,Irene,Sanders,isandersci@zimbio.com,12.2867,10.3527,235.167.212.99
2015-01-22 02:25:23,Jeremy,Rice,jricecj@guardian.co.uk,54.36914,60.81361,141.206.30.142
2015-01-27 19:49:04,Jessica,Campbell,jcampbellck@oakley.com,30.8644,112.66611,164.64.65.215
2015-01-16 16:12:17,Randy,Harper,rharpercl@nationalgeographic.com,41.5454,-88.1299,131.200.236.24
2015-01-21 22:42:35,Wayne,Green,wgreencm@nytimes.com,33.01368,111.18961,252.16.178.76
2015-01-22 04:16:25,Anne,Schmidt,aschmidtcn@about.me,-20.53389,-49.31417,195.197.158.98
2015-01-04 00:38:05,Susan,Payne,spayneco@walmart.com,52.84129,22.98119,43.152.179.13
2015-01-28 06:30:26,Evelyn,Ross,erosscp@w3.org,10.30125,-65.99052,106.85.230.103
2015-01-09 21:47:25,Peter,Meyer,pmeyercq@yelp.com,-8.0779,113.194,63.141.130.83
2015-01-12 12:51:20,Carlos,Peters,cpeterscr@msu.edu,60.393,5.3242,202.149.63.94
2015-01-10 01:57:17,Pamela,Matthews,pmatthewscs@gizmodo.com,50.51667,115.13333,123.242.180.127
2015-01-17 04:17:58,Angela,Alvarez,aalvarezct@berkeley.edu,41.30278,20.83028,40.35.229.113
2015-01-21 20:18:53,Stephen,Greene,sgreenecu@ifeng.com,37.50136,120.22467,124.7.1.223
2015-01-06 14:38:23,Gloria,Kelley,gkelleycv@youtu.be,-7.0981,109.3243,239.22.86.142
2015-01-24 04:48:38,Rachel,Riley,rrileycw@seesaa.net,-25.01667,25.73333,66.134.54.30
2015-01-09 14:28:34,Brandon,Bell,bbellcx@unesco.org,17.02305,121.77834,197.134.79.50
2015-01-07 08:59:01,Teresa,Peters,tpeterscy@bing.com,33.0097,106.18352,161.101.202.154
2015-01-05 06:59:47,Doris,Montgomery,dmontgomerycz@webmd.com,55.49567,38.65064,142.30.69.201
2015-01-02 07:38:14,Gregory,Knight,gknightd0@slate.com,49.25785,118.10174,8.184.166.220
2015-01-22 19:08:56,Craig,Cruz,ccruzd1@reuters.com,43.20697,46.8679,244.35.178.161
2015-01-13 03:32:35,Susan,Romero,sromerod2@youtube.com,-23.74417,-46.39833,151.151.30.40
2015-01-04 18:17:21,George,Perez,gperezd3@weibo.com,45.51162,128.51963,183.198.80.210
2015-01-27 15:47:42,Sean,Lopez,slopezd4@360.cn,24.56909,118.03451,78.218.167.234
2015-01-06 09:18:08,Sarah,Roberts,srobertsd5@usnews.com,14.96532,120.55672,150.193.157.191
2015-01-24 04:59:41,Rebecca,Owens,rowensd6@cocolog-nifty.com,55.6794,12.5346,63.0.129.182
2015-01-24 07:03:08,Jane,Sullivan,jsullivand7@wunderground.com,-22.44083,-66.16779,220.78.26.53
2015-01-28 08:18:03,Craig,Gardner,cgardnerd8@blogspot.com,53.42048,16.81756,92.225.90.180
2015-01-20 22:31:22,Steven,Butler,sbutlerd9@phoca.cz,7.77768,100.32134,165.36.170.222
2015-01-16 01:56:59,Jacqueline,Larson,jlarsonda@gizmodo.com,46.7833,4.85,163.17.115.250
2015-01-21 15:20:25,Matthew,Reyes,mreyesdb@toplist.cz,48.892,2.2067,19.198.202.241
2015-01-01 22:44:42,Richard,Long,rlongdc@telegraph.co.uk,39.23333,106.76944,218.212.24.75
2015-01-17 03:40:31,Ann,Hughes,ahughesdd@jigsy.com,40.8205,-7.8295,116.30.91.194
2015-01-25 06:56:43,Stephanie,Lynch,slynchde@squarespace.com,15.90496,120.53719,134.151.23.59
2015-01-17 04:13:34,Michael,Fisher,mfisherdf@columbia.edu,-21.76417,-43.35028,70.118.57.155
2015-01-09 10:02:24,Sara,Ryan,sryandg@weebly.com,-8.58386,120.04864,145.232.179.141
2015-01-03 11:24:20,Richard,Foster,rfosterdh@ox.ac.uk,6.44972,124.79472,193.150.71.159
2015-01-01 05:26:43,Brian,Morrison,bmorrisondi@quantcast.com,18.052,120.6898,200.20.133.246
2015-01-07 16:52:22,Bonnie,Myers,bmyersdj@google.ru,6.68614,124.06957,196.177.129.59
2015-01-30 10:36:21,Larry,Jackson,ljacksondk@ucla.edu,18.56585,-73.89464,225.97.170.5
2015-01-09 19:03:21,Norma,Gonzalez,ngonzalezdl@flickr.com,46.3231,-0.4588,73.186.217.28
2015-01-14 04:35:31,Marie,Edwards,medwardsdm@tmall.com,51.78341,-114.10199,125.22.166.26
2015-01-29 11:32:34,Anthony,Hamilton,ahamiltondn@symantec.com,44.3366,40.7849,244.98.173.199
2015-01-04 19:16:30,Amy,Stevens,astevensdo@ed.gov,27.99662,116.3529,193.164.47.147
2015-01-30 12:34:52,Judy,Alexander,jalexanderdp@redcross.org,16.33999,119.9949,238.194.163.26
2015-01-27 05:00:07,Craig,Perkins,cperkinsdq@ovh.net,56.0313,14.1524,130.39.171.3
2015-01-07 02:50:41,Robert,Spencer,rspencerdr@latimes.com,24.61235,117.99112,241.131.25.29
2015-01-17 18:46:39,Lisa,Schmidt,lschmidtds@twitter.com,49.14789,14.17513,222.55.179.174
2015-01-27 00:59:21,Antonio,Peters,apetersdt@opera.com,-7.1836,108.4341,5.106.124.223
2015-01-06 19:51:11,Diana,Graham,dgrahamdu@digg.com,49.7427,13.59459,17.205.221.29
2015-01-16 09:54:24,Joseph,Powell,jpowelldv@nih.gov,39.49524,67.60931,205.149.85.111
2015-01-04 21:19:30,Gregory,Marshall,gmarshalldw@sakura.ne.jp,-9.9866,120.3316,136.8.181.36
2015-01-13 22:56:12,Peter,Barnes,pbarnesdx@ustream.tv,45.19172,20.47239,33.98.74.166
2015-01-29 20:19:09,Kenneth,Diaz,kdiazdy@globo.com,21.8665,106.76833,130.4.59.117
2015-01-28 18:11:49,Joshua,Burton,jburtondz@scribd.com,36.72556,10.85528,212.77.16.168
2015-01-05 13:51:40,Mary,Howell,mhowelle0@npr.org,36.51667,140.18333,113.60.207.212
2015-01-24 18:30:35,Marilyn,Romero,mromeroe1@t.co,15.6447,120.8612,149.78.55.96
2015-01-23 17:20:12,Bruce,Myers,bmyerse2@arizona.edu,19.57748,110.39448,235.178.145.117
2015-01-13 12:01:36,Annie,Long,alonge3@prnewswire.com,46.16083,15.87889,156.187.11.132
2015-01-18 22:36:11,Todd,Perry,tperrye4@mozilla.org,45.5667,5.9333,72.83.230.51
2015-01-09 06:30:04,Laura,Gordon,lgordone5@slashdot.org,24.74056,102.59484,244.32.169.210
2015-01-24 13:10:20,Samuel,Howard,showarde6@tmall.com,40.39639,19.72972,122.186.220.214
2015-01-26 08:17:05,Aaron,Myers,amyerse7@posterous.com,31.37324,-5.79384,243.204.234.248
2015-01-03 15:48:29,Richard,Richardson,rrichardsone8@boston.com,11.38321,-72.24321,19.230.192.145
2015-01-14 20:19:15,Paula,Thompson,pthompsone9@house.gov,34.95563,36.1983,115.33.160.72
2015-01-20 11:26:32,Debra,Dixon,ddixonea@state.gov,44.23,42.7698,185.226.197.253
2015-01-26 15:23:46,Philip,Watson,pwatsoneb@plala.or.jp,-8.0457,112.303,126.249.48.238
2015-01-21 18:39:32,Judy,Smith,jsmithec@google.it,39.6922,-8.4593,95.82.107.75
2015-01-19 01:09:28,Albert,Burns,aburnsed@stanford.edu,-8.3855,123.2579,32.213.243.79
2015-01-19 23:04:11,Jason,Vasquez,jvasquezee@google.ca,26.95592,113.66137,31.129.65.204
2015-01-09 14:10:54,Bruce,Rodriguez,brodriguezef@goo.ne.jp,-9.58333,33.85,161.198.81.82
2015-01-16 07:21:53,Robert,Torres,rtorreseg@miibeian.gov.cn,-8.572,116.6058,113.92.214.71
2015-01-09 22:13:45,Kelly,Gordon,kgordoneh@w3.org,8.98333,37.85,35.247.133.1
2015-01-13 03:14:42,Barbara,Andrews,bandrewsei@google.fr,53.85136,18.39901,120.227.151.163
2015-01-02 07:23:06,Arthur,West,awestej@google.com.br,37.9408,47.5367,40.225.105.37
2015-01-07 14:58:17,Nancy,Mills,nmillsek@ucoz.com,40.6074,-7.3963,92.238.248.58
2015-01-30 10:05:08,Stephanie,Hill,shillel@shop-pro.jp,29.4655,113.92683,133.124.241.61
2015-01-28 01:22:42,Lois,Bryant,lbryantem@freewebs.com,52.9569,31.9703,20.84.68.87
2015-01-24 06:42:55,Mary,Knight,mknighten@dedecms.com,46.77914,-56.1773,91.94.199.77
2015-01-01 10:27:33,Wayne,Fields,wfieldseo@biblegateway.com,15.11667,-88.08333,134.190.98.157
2015-01-12 09:00:21,Helen,Nichols,hnicholsep@123-reg.co.uk,39.5887,-8.6527,75.104.221.3
2015-01-05 00:02:59,Antonio,Morrison,amorrisoneq@ucoz.ru,46.41944,14.69361,206.249.179.40
2015-01-17 21:51:29,Jeffrey,Henderson,jhendersoner@ca.gov,34.83745,32.43272,185.183.50.64
2015-01-15 01:17:22,Joan,Lawson,jlawsones@auda.org.au,59.2793,18.0111,34.131.124.236
2015-01-14 15:44:13,Richard,Black,rblacket@businesswire.com,57.14122,43.15894,82.237.48.32
2015-01-01 19:36:21,Paula,Hamilton,phamiltoneu@ucsd.edu,39.61217,113.48139,109.204.133.60
2015-01-17 17:14:06,Craig,Gonzales,cgonzalesev@sitemeter.com,-7.0047,108.335,251.153.114.79
2015-01-22 17:00:15,Katherine,Henry,khenryew@bravesites.com,49.33871,17.99619,18.178.60.53
2015-01-23 04:09:07,Amanda,Bishop,abishopex@blog.com,43.41083,17.20556,139.130.7.165
2015-01-08 06:08:49,Fred,Ford,ffordey@seattletimes.com,48.892,2.2067,107.242.203.253
2015-01-17 16:02:54,Doris,Rivera,driveraez@wired.com,6.47559,-72.97046,78.222.246.209
2015-01-23 09:16:56,Steve,Turner,sturnerf0@github.io,32.51414,118.91355,86.85.159.52
2015-01-23 18:13:37,Lawrence,Schmidt,lschmidtf1@umn.edu,48.6,15.15,95.125.171.229
2015-01-16 22:19:36,Ann,Price,apricef2@squidoo.com,8.00194,123.50944,117.131.64.67
2015-01-10 06:24:01,Ann,Mendoza,amendozaf3@gravatar.com,59.35,18.5,3.77.135.212
2015-01-01 19:04:23,Carol,Bishop,cbishopf4@state.gov,-25.30556,-49.05528,16.222.196.107
2015-01-21 15:04:51,Donald,Ferguson,dfergusonf5@youtu.be,29.2162,107.02229,137.227.118.235
2015-01-15 14:35:07,Phyllis,Gardner,pgardnerf6@apple.com,51.8425,5.8528,181.38.59.29
2015-01-10 02:03:38,Norma,Hall,nhallf7@prlog.org,36.16667,139.53333,161.27.217.225
2015-01-14 12:21:59,Donna,Hamilton,dhamiltonf8@google.com.hk,48.9,2.45,96.104.179.38
2015-01-30 04:25:06,Joshua,Wagner,jwagnerf9@shutterfly.com,23.76992,116.67166,28.225.183.180
2015-01-28 14:03:46,Christine,Patterson,cpattersonfa@posterous.com,-28.76659,28.24936,33.203.103.37
2015-01-24 22:58:38,Donna,Murphy,dmurphyfb@constantcontact.com,,,104.29.182.8
2015-01-11 08:06:22,Diana,Woods,dwoodsfc@ucoz.com,37.90111,116.74111,238.94.61.183
2015-01-14 16:21:55,Justin,Jenkins,jjenkinsfd@fema.gov,59.3326,18.0649,139.122.98.49
2015-01-08 20:39:52,Louise,Gibson,lgibsonfe@accuweather.com,17.0481,-13.9209,14.159.178.77
2015-01-21 01:30:31,Anthony,Fox,afoxff@admin.ch,40.8667,-8.4875,52.126.184.220
2015-01-14 00:49:40,Amy,Perry,aperryfg@netvibes.com,-6.9442,111.4451,250.214.217.253
2015-01-13 19:31:24,Joseph,Turner,jturnerfh@feedburner.com,17.3601,-99.1793,59.163.235.28
2015-01-02 17:03:26,Stephen,Chapman,schapmanfi@godaddy.com,5.9765,116.1158,144.192.179.231
2015-01-08 04:22:26,Linda,Watkins,lwatkinsfj@odnoklassniki.ru,-2.49313,106.4081,183.157.61.28
2015-01-12 14:19:15,Jonathan,Ramirez,jramirezfk@livejournal.com,-7.6965,107.8826,220.78.142.168
2015-01-12 14:40:03,Kelly,Payne,kpaynefl@wikispaces.com,18.46699,109.66436,121.155.189.108
2015-01-14 10:18:40,Catherine,Carter,ccarterfm@hc360.com,10.49583,123.99889,32.177.238.41
2015-01-22 07:19:20,Catherine,Wagner,cwagnerfn@myspace.com,54.14384,15.29142,145.254.243.215
2015-01-14 12:14:41,Susan,Flores,sfloresfo@yale.edu,-8.1254,111.7035,183.73.101.228
2015-01-25 01:17:41,Joe,Hart,jhartfp@cloudflare.com,13.1773,123.7301,119.247.158.121
2015-01-19 00:47:22,Theresa,Kelly,tkellyfq@howstuffworks.com,41.35938,126.51296,170.216.104.138
2015-01-07 04:34:14,Kathy,Lewis,klewisfr@nasa.gov,49.47076,15.00168,170.182.146.173
2015-01-15 09:01:17,Victor,Berry,vberryfs@dion.ne.jp,28.83307,120.2883,72.80.28.240
2015-01-08 17:13:54,Frank,Walker,fwalkerft@bandcamp.com,53.73601,127.257,37.42.96.221
2015-01-24 16:58:42,Ruby,Simmons,rsimmonsfu@cocolog-nifty.com,47.64056,28.14194,188.151.222.29
2015-01-19 23:35:26,Carl,Knight,cknightfv@tamu.edu,-8.6636,116.4877,92.132.216.49
2015-01-15 17:47:49,Judy,Ruiz,jruizfw@statcounter.com,-6.7239,105.6665,4.224.199.29
2015-01-19 14:12:11,Steve,Reyes,sreyesfx@wix.com,27.73838,66.64336,83.138.125.89
2015-01-22 19:53:20,Shawn,Duncan,sduncanfy@tinyurl.com,59.36,18.0009,239.143.122.148
2015-01-07 15:26:45,John,Larson,jlarsonfz@state.gov,52.51711,15.41382,250.17.177.246
2015-01-11 18:01:13,Paul,Ellis,pellisg0@rakuten.co.jp,14.3103,122.7229,191.217.224.230
2015-01-06 08:45:29,Tammy,Murray,tmurrayg1@time.com,35.73062,63.78264,102.48.161.211
2015-01-19 04:54:09,Catherine,Chavez,cchavezg2@histats.com,33.20733,35.57212,113.254.215.197
2015-01-24 22:24:44,Scott,Cooper,scooperg3@flickr.com,13.5,-88.35,227.139.12.149
2015-01-29 21:27:41,Fred,Howard,fhowardg4@nifty.com,25.02654,116.95252,221.28.37.37
2015-01-18 14:00:42,Diana,Matthews,dmatthewsg5@privacy.gov.au,53.50332,34.38847,185.193.238.66
2015-01-19 08:03:25,Arthur,Reed,areedg6@google.co.jp,18.4813,96.43742,246.6.31.119
2015-01-16 06:39:28,Joan,Price,jpriceg7@independent.co.uk,49.97083,39.69389,236.3.93.80
2015-01-12 09:11:22,Robin,Graham,rgrahamg8@opensource.org,54.5845,86.0115,239.178.245.59
2015-01-04 02:01:49,Jimmy,Mills,jmillsg9@digg.com,7.9986,123.6627,166.78.197.60
2015-01-11 18:35:08,Laura,Daniels,ldanielsga@imageshack.us,51.75216,123.56618,216.173.123.176
2015-01-05 19:40:41,Wanda,Hunter,whuntergb@seattletimes.com,45.1519,5.3239,20.102.44.123
2015-01-21 16:16:06,Elizabeth,Taylor,etaylorgc@mac.com,33.67067,69.32983,218.150.249.87
2015-01-07 21:28:31,Sean,Woods,swoodsgd@mtv.com,48.70837,36.91561,175.201.90.29
2015-01-05 05:32:12,Paula,Riley,prileyge@stumbleupon.com,36.4,10.61667,108.230.46.27
2015-01-23 05:31:39,Catherine,Gutierrez,cgutierrezgf@plala.or.jp,-8.3866,115.6013,76.151.34.148
2015-01-12 04:58:32,Ann,Bennett,abennettgg@webeden.co.uk,7.08639,124.90056,17.67.118.75
2015-01-12 12:51:43,Sharon,Roberts,srobertsgh@soundcloud.com,45.49452,-73.82419,118.3.158.105
2015-01-02 10:46:31,Annie,Bell,abellgi@imgur.com,-8.4849,115.1348,3.151.212.136
2015-01-18 12:14:14,Charles,Hunt,chuntgj@redcross.org,15.15856,108.79582,219.4.181.56
2015-01-07 02:09:16,Deborah,Flores,dfloresgk@home.pl,-7.2198,108.514,48.157.226.216
2015-01-23 17:41:18,Mary,Perkins,mperkinsgl@dmoz.org,51.1421,40.3021,148.214.118.255
2015-01-02 13:17:44,Larry,Butler,lbutlergm@prweb.com,28.02573,108.33462,168.221.72.159
2015-01-27 13:57:36,Lori,Sanchez,lsanchezgn@nydailynews.com,49.92602,18.27017,130.174.33.89
2015-01-28 09:10:05,Frank,Franklin,ffranklingo@baidu.com,-20.14056,57.55306,87.54.124.208
2015-01-30 23:24:56,Donald,Ramos,dramosgp@networkadvertising.org,32.81841,34.9885,100.224.138.125
2015-01-30 22:38:34,Martha,Mcdonald,mmcdonaldgq@vimeo.com,-9.9543,124.4632,152.85.105.10
2015-01-21 14:04:32,Ruby,Banks,rbanksgr@taobao.com,-8.2409,113.75594,248.80.87.215
2015-01-11 21:29:48,Raymond,Williams,rwilliamsgs@goo.ne.jp,25.85587,88.35943,119.113.188.78
2015-01-07 17:09:54,Christine,Powell,cpowellgt@google.co.uk,17.25,-88.76667,146.120.113.235
2015-01-29 16:22:44,Harold,Dean,hdeangu@free.fr,12.9009,123.617,253.39.254.8
2015-01-10 15:06:00,Tina,Gomez,tgomezgv@cbsnews.com,-8.1185,111.9206,227.101.253.218
2015-01-27 10:04:07,Anna,Harris,aharrisgw@virginia.edu,-6.6945,111.5641,180.4.42.26
2015-01-08 12:05:07,Craig,Taylor,ctaylorgx@netvibes.com,30.77075,107.4571,174.168.248.120
2015-01-26 11:48:10,Thomas,Brown,tbrowngy@blogspot.com,33.0169,-116.846,30.40.243.17
2015-01-18 06:23:01,Fred,Wells,fwellsgz@nsw.gov.au,-6.2063,106.1107,216.164.251.181
2015-01-02 09:20:30,David,Ward,dwardh0@mapy.cz,30.04609,120.76762,218.146.147.217
2015-01-18 15:01:05,Laura,Nelson,lnelsonh1@pen.io,22.65948,112.36626,85.234.18.77
2015-01-13 20:22:19,Carlos,Wood,cwoodh2@oakley.com,-10.0396,120.754,97.55.169.120
2015-01-29 08:01:56,Paul,Hernandez,phernandezh3@comsenz.com,-25.24083,-53.99639,52.159.92.108
2015-01-12 14:38:09,Theresa,Bryant,tbryanth4@rakuten.co.jp,53.21435,63.62463,167.49.175.9
2015-01-30 06:21:31,Howard,Ruiz,hruizh5@sciencedaily.com,-14.64083,-39.55111,81.220.133.190
2015-01-26 05:55:20,Matthew,Larson,mlarsonh6@ucoz.ru,28.54852,118.24404,254.63.89.65
2015-01-16 11:03:40,Justin,Burke,jburkeh7@gizmodo.com,41.55,-8.2667,12.232.119.205
2015-01-23 21:38:15,Jacqueline,Flores,jfloresh8@indiatimes.com,51.30719,39.21732,238.51.63.2
2015-01-01 20:20:02,Anna,Willis,awillish9@economist.com,13.7,30.36667,195.30.214.135
2015-01-03 10:02:03,Wayne,Jenkins,wjenkinsha@tripod.com,45.6961,4.9389,171.197.228.110
2015-01-20 16:33:28,Ruth,Flores,rfloreshb@independent.co.uk,20.5576,-97.2842,196.201.211.222
2015-01-05 23:59:58,Alice,Castillo,acastillohc@bing.com,51.4213,26.14469,60.88.8.114
2015-01-22 21:02:22,Joshua,Kim,jkimhd@t.co,-41.41222,175.51528,85.175.11.229
2015-01-23 19:22:29,Melissa,Jacobs,mjacobshe@google.com.au,-46.7949,-67.95731,105.86.106.80
2015-01-20 10:31:02,Ann,Lopez,alopezhf@geocities.com,-20.14333,-44.19972,161.236.126.208
2015-01-13 13:47:16,Norma,Henry,nhenryhg@toplist.cz,36.54384,101.98602,123.150.54.75
2015-01-20 05:00:02,Shirley,Russell,srussellhh@mayoclinic.com,36.8,139.93333,252.5.58.150
2015-01-19 20:03:36,Michelle,Ford,mfordhi@nasa.gov,21.03433,106.77049,83.40.104.40
2015-01-06 08:11:39,Paul,Coleman,pcolemanhj@edublogs.org,39.16538,77.62035,73.30.133.167
2015-01-30 13:30:08,Judith,Bennett,jbennetthk@gmpg.org,31.76904,35.21633,86.4.224.179
2015-01-01 20:06:26,Barbara,Elliott,belliotthl@chronoengine.com,53.6832,27.138,146.112.238.37
2015-01-20 10:04:18,Antonio,Jackson,ajacksonhm@scribd.com,-24.83333,-56.35,50.67.125.205
2015-01-10 15:06:13,Anne,Stanley,astanleyhn@hugedomains.com,50.03339,-66.86545,170.123.248.241
2015-01-03 11:16:10,Sharon,Holmes,sholmesho@stanford.edu,48,0.2,92.218.41.150
2015-01-01 14:07:28,Arthur,Adams,aadamshp@msn.com,47.1441,-122.4434,254.41.168.98
2015-01-16 01:26:28,Diana,Fowler,dfowlerhq@acquirethisname.com,38.8933,-77.0146,4.43.175.205
2015-01-08 21:50:10,Keith,Sullivan,ksullivanhr@slashdot.org,-30.71164,-61.99862,36.147.102.253
2015-01-24 07:37:13,Lisa,Myers,lmyershs@nyu.edu,32.42888,74.3633,171.182.249.107
2015-01-20 15:09:32,Nicole,Hall,nhallht@google.pl,49.0241,1.1508,213.27.109.86
2015-01-17 05:23:22,Henry,Elliott,helliotthu@irs.gov,-7.0502,112.4574,64.116.147.43
2015-01-20 05:54:58,Amanda,Morrison,amorrisonhv@jugem.jp,34.26545,67.34516,1.75.241.120
2015-01-06 16:41:25,Catherine,Freeman,cfreemanhw@engadget.com,-6.9028,112.9709,192.150.135.234
2015-01-11 22:18:09,Jason,Dunn,jdunnhx@so-net.ne.jp,32.5883,74.49321,32.252.227.48
2015-01-13 18:56:38,Stephen,Adams,sadamshy@kickstarter.com,59.1312,10.2166,169.55.37.243
2015-01-25 04:11:19,Eric,Kelley,ekelleyhz@mit.edu,57.1056,12.2508,112.154.34.211
2015-01-11 02:29:53,Andrea,Roberts,arobertsi0@freewebs.com,-7.068,108.8647,199.54.96.175
2015-01-17 02:54:33,Pamela,Richardson,prichardsoni1@economist.com,-9.37272,30.12501,47.170.4.84
2015-01-07 18:21:39,Rebecca,West,rwesti2@g.co,52.08668,18.8225,203.23.207.53
2015-01-27 23:26:35,Earl,Ward,ewardi3@uol.com.br,41.44587,113.30316,82.253.22.55
2015-01-21 04:57:14,Jason,Hart,jharti4@mail.ru,43.08173,46.8286,3.47.227.75
2015-01-11 22:47:38,Patrick,Hicks,phicksi5@marketwatch.com,32.85301,35.1987,22.254.172.201
2015-01-25 15:48:14,Louis,Matthews,lmatthewsi6@uol.com.br,38.8318,-77.2888,37.182.130.109
2015-01-15 11:03:08,Michelle,Murphy,mmurphyi7@bing.com,58.0038,55.6721,156.22.234.215
2015-01-01 02:43:25,Andrew,Burke,aburkei8@mapquest.com,34.78768,104.77531,70.210.75.5
2015-01-27 05:48:49,Cheryl,Sullivan,csullivani9@yellowbook.com,-8.0487,111.8675,107.78.179.188
2015-01-11 00:27:40,Ralph,Fowler,rfowleria@myspace.com,39.0966,-94.7495,215.199.101.158
2015-01-28 16:57:25,Laura,Hawkins,lhawkinsib@nba.com,-6.9819,113.5989,228.16.119.251
2015-01-20 05:16:44,Wanda,Evans,wevansic@jalbum.net,46.20006,-72.13239,232.22.94.241
2015-01-20 07:52:51,Doris,Harper,dharperid@github.com,23.76992,116.67166,16.120.153.47
2015-01-30 20:16:04,Chris,Hill,chillie@creativecommons.org,32.1146,35.08028,101.49.150.144
2015-01-28 20:12:01,Phyllis,Simmons,psimmonsif@reddit.com,4.2513,96.43726,58.150.73.80
2015-01-22 00:19:26,Bonnie,Austin,baustinig@samsung.com,-6.5582,106.3605,81.194.105.66
2015-01-16 16:44:15,Julia,Woods,jwoodsih@imgur.com,-7.3453,106.6989,184.77.137.139
2015-01-08 05:24:49,Dorothy,Lawrence,dlawrenceii@yellowbook.com,-7.55528,109.11306,35.166.212.134
2015-01-24 02:38:49,Bruce,Scott,bscottij@ocn.ne.jp,32.31222,112.63653,92.1.40.240
2015-01-28 23:27:11,David,Shaw,dshawik@purevolume.com,50.7239,3.1612,235.213.132.37
2015-01-23 16:36:53,Irene,Black,iblackil@cnet.com,53.4943,84.2016,61.102.126.111
2015-01-16 11:09:42,Roger,Hudson,rhudsonim@dailymotion.com,58.4167,15.6167,8.50.111.134
2015-01-15 15:42:58,Gloria,Stanley,gstanleyin@blogtalkradio.com,26.6459,-80.4303,194.216.96.81
2015-01-20 08:58:20,Charles,Bryant,cbryantio@umn.edu,28.42595,108.99594,222.154.99.216
2015-01-07 13:33:34,Marilyn,Sanders,msandersip@wiley.com,29.31312,107.41845,212.87.45.129
2015-01-05 09:58:10,Joyce,Patterson,jpattersoniq@shinystat.com,34.68406,33.03794,196.41.159.244
2015-01-25 19:14:38,Joe,Torres,jtorresir@dagondesign.com,49.39598,21.02368,203.182.98.118
2015-01-12 02:57:46,Kenneth,Oliver,koliveris@yellowbook.com,30.66667,104.06667,250.49.76.204
2015-01-24 03:43:14,Amanda,Nelson,anelsonit@ucoz.ru,-29.23202,-61.76917,143.26.98.172
2015-01-26 06:56:01,Juan,Banks,jbanksiu@archive.org,50.68357,16.74359,91.103.60.44
2015-01-24 04:05:48,Victor,Stephens,vstephensiv@tmall.com,49.10986,28.17459,218.93.94.17
2015-01-10 18:27:07,Gregory,Roberts,grobertsiw@ezinearticles.com,47.63543,34.62769,135.191.233.57
2015-01-02 23:18:54,Louis,Dean,ldeanix@qq.com,56.8793,16.6563,100.162.49.203
2015-01-17 05:53:00,Chris,Olson,colsoniy@slashdot.org,38.70128,114.78823,197.45.145.46
2015-01-25 11:04:16,Julia,Myers,jmyersiz@fotki.com,30.25095,113.51328,238.112.186.129
2015-01-09 03:58:29,Brenda,Fowler,bfowlerj0@mail.ru,31.24025,119.30074,12.69.249.149
2015-01-23 23:09:02,Margaret,Wilson,mwilsonj1@wordpress.com,24.3539,68.26706,181.67.93.178
2015-01-21 08:40:51,Kevin,Rice,kricej2@reverbnation.com,-7.61278,109.17972,61.195.205.101
2015-01-06 01:07:35,Brenda,Hunter,bhunterj3@weebly.com,32.12145,112.48365,53.19.183.200
2015-01-22 22:42:42,Michael,Banks,mbanksj4@reference.com,-4.36139,14.76444,151.151.186.217
2015-01-19 00:03:37,Harry,Rodriguez,hrodriguezj5@amazonaws.com,49.65278,6.14139,224.92.65.171
2015-01-26 19:05:18,Brenda,Hicks,bhicksj6@intel.com,10.95358,107.00589,79.21.44.72
2015-01-09 14:38:25,Alan,Robinson,arobinsonj7@exblog.jp,-23.66778,-46.46139,182.86.85.190
2015-01-09 17:52:20,Shawn,Ross,srossj8@webmd.com,38.8318,-77.2888,94.101.59.187
2015-01-22 06:28:56,Gloria,Graham,ggrahamj9@sbwire.com,55.46129,50.1409,254.29.236.84
2015-01-08 20:42:50,Robin,Oliver,roliverja@scribd.com,30.759,106.05936,46.18.78.87
2015-01-08 16:59:59,Steven,Perez,sperezjb@wunderground.com,-8.605,122.743,123.116.68.142
2015-01-07 10:12:37,Rebecca,Bennett,rbennettjc@cloudflare.com,-22.85222,-43.77528,113.12.229.101
2015-01-03 21:41:30,Anne,Armstrong,aarmstrongjd@microsoft.com,51.55,-9.26667,56.180.40.197
2015-01-06 08:01:17,Norma,Armstrong,narmstrongje@youtu.be,49.84252,19.98207,62.198.178.54
2015-01-02 15:09:05,Joe,Miller,jmillerjf@google.es,34.72587,109.50724,179.74.198.222
2015-01-18 04:08:43,Donna,Wright,dwrightjg@angelfire.com,48.83328,-72.53209,114.57.43.117
2015-01-15 02:22:34,Lisa,Powell,lpowelljh@simplemachines.org,51.29405,25.53436,67.97.250.10
2015-01-08 15:15:09,Mary,Hernandez,mhernandezji@washington.edu,0.086,-76.89528,216.223.39.146
2015-01-04 09:17:54,Nicole,Willis,nwillisjj@blogger.com,47.90966,33.38044,38.48.36.154
2015-01-01 05:20:55,Bruce,Tucker,btuckerjk@ning.com,-8.2831,124.6254,54.23.43.160
2015-01-28 03:44:18,Henry,Hawkins,hhawkinsjl@geocities.jp,10.30122,106.35701,156.40.41.203
2015-01-14 17:33:54,Lawrence,Ramirez,lramirezjm@sitemeter.com,57.88175,41.70829,238.95.184.47
2015-01-26 14:17:56,Patricia,Roberts,probertsjn@wp.com,46.23487,123.2775,95.28.36.47
2015-01-22 13:15:56,Heather,Hanson,hhansonjo@mashable.com,30.29345,122.12264,244.71.147.121
2015-01-24 20:43:44,Margaret,Edwards,medwardsjp@squidoo.com,14.51255,-17.00447,31.112.121.205
2015-01-21 10:14:44,Thomas,Perez,tperezjq@google.es,39.68404,115.93465,114.227.209.80
2015-01-29 04:27:50,Sarah,Thompson,sthompsonjr@psu.edu,-4.71572,104.4498,121.192.50.32
2015-01-11 12:59:27,Daniel,Porter,dporterjs@yahoo.com,39.00556,21.63778,255.10.212.1
2015-01-03 01:03:42,Jesse,White,jwhitejt@unicef.org,57.6467,11.9294,226.30.179.59
2015-01-04 04:29:49,Kimberly,Bryant,kbryantju@bbb.org,42.43333,23.81667,184.41.199.22
2015-01-20 16:03:53,Mildred,Burton,mburtonjv@eventbrite.com,28.3111,107.50492,198.101.192.103
2015-01-09 06:01:07,Wayne,Andrews,wandrewsjw@techcrunch.com,36.88639,81.50972,34.69.214.145
2015-01-15 12:39:32,Craig,Lynch,clynchjx@nasa.gov,9.9144,124.0919,149.186.224.231
2015-01-26 09:08:13,Jack,Flores,jfloresjy@samsung.com,37.26191,23.15943,139.219.239.225
2015-01-02 01:59:51,Alan,Rodriguez,arodriguezjz@wikimedia.org,49.03333,37.56667,125.54.180.137
2015-01-24 18:45:40,Adam,Simmons,asimmonsk0@prlog.org,42.0167,-8.5,55.219.152.27
2015-01-23 04:28:20,Shawn,Torres,storresk1@soup.io,45.0705,7.6868,135.228.196.53
2015-01-26 11:28:42,Kathy,Daniels,kdanielsk2@hugedomains.com,20.73668,-76.32646,7.147.220.129
2015-01-20 04:19:32,Thomas,Wagner,twagnerk3@amazon.de,30.1764,121.2457,24.191.28.32
2015-01-07 23:12:00,Annie,Ross,arossk4@upenn.edu,36.98991,107.84795,53.103.127.153
2015-01-30 06:39:33,Donna,King,dkingk5@simplemachines.org,45.83345,-64.19874,170.30.8.55
2015-01-19 09:56:26,Ronald,Hernandez,rhernandezk6@diigo.com,17.2675,103.22472,157.190.240.137
2015-01-01 01:21:44,Michael,Robertson,mrobertsonk7@etsy.com,-15.45278,-47.61417,63.21.185.143
2015-01-22 04:45:27,Johnny,Meyer,jmeyerk8@google.com.br,-5.37306,-79.60028,207.3.86.132
2015-01-14 02:16:10,Paula,Hunt,phuntk9@feedburner.com,-20.86667,27.25,236.253.125.144
2015-01-11 21:01:43,Roger,Stephens,rstephenska@vistaprint.com,36.77083,119.21083,85.90.152.27
2015-01-10 19:27:13,Jerry,Robertson,jrobertsonkb@kickstarter.com,-8.4829,118.793,157.222.60.204
2015-01-02 16:15:43,Virginia,Rogers,vrogerskc@boston.com,43.5942,13.5034,189.104.171.112
2015-01-25 12:39:47,Louise,Riley,lrileykd@un.org,56.31667,38.7,195.229.42.36
2015-01-02 13:02:27,Eugene,Hawkins,ehawkinske@bbc.co.uk,20.64637,106.05112,215.161.17.190
2015-01-15 23:14:55,Walter,Berry,wberrykf@noaa.gov,41.2175,19.69611,122.25.126.146
2015-01-17 21:58:37,Keith,Owens,kowenskg@studiopress.com,54.13609,19.00909,28.78.150.19
2015-01-07 08:27:25,Heather,Fowler,hfowlerkh@ezinearticles.com,8.16454,-72.16556,180.69.211.52
2015-01-23 17:03:12,George,Phillips,gphillipski@shareasale.com,52.35532,16.51958,192.49.128.37
2015-01-01 08:11:11,Theresa,Mills,tmillskj@foxnews.com,49.88307,-119.48568,201.204.252.63
2015-01-12 14:20:29,Martin,Perry,mperrykk@artisteer.com,-6.26703,14.2401,237.242.218.109
2015-01-15 09:13:05,Lawrence,Wells,lwellskl@163.com,-22.42861,-43.41861,152.173.227.254
2015-01-22 19:17:09,Carolyn,Nelson,cnelsonkm@wikispaces.com,59.89565,29.80145,107.81.176.111
2015-01-09 13:01:28,Diane,Perkins,dperkinskn@kickstarter.com,40.68748,22.1364,156.112.184.46
2015-01-14 19:18:32,Billy,Duncan,bduncanko@joomla.org,43.96222,43.63417,86.104.174.207
2015-01-20 23:07:38,Jacqueline,Bishop,jbishopkp@businessweek.com,5.97462,-0.08542,60.60.114.147
2015-01-18 11:49:51,Heather,Ellis,helliskq@msn.com,45.56678,-73.19915,177.214.226.100
2015-01-01 02:13:06,Raymond,Burton,rburtonkr@hud.gov,29.54661,116.48235,128.132.16.119
2015-01-17 23:52:16,Adam,Lewis,alewisks@npr.org,41.53,-8.3567,96.238.15.24
2015-01-04 10:01:49,Carlos,Morrison,cmorrisonkt@patch.com,-7.4204,108.6951,228.205.185.56
2015-01-17 22:53:16,Jose,Holmes,jholmesku@diigo.com,30.29238,71.67117,208.141.129.185
2015-01-28 23:19:11,Russell,Simmons,rsimmonskv@answers.com,18.25478,-76.88799,115.243.149.190
2015-01-18 11:02:54,Andrew,Bishop,abishopkw@miitbeian.gov.cn,-6.2955,106.1064,138.118.246.55
2015-01-18 07:42:08,Jeremy,Perez,jperezkx@over-blog.com,44.70819,18.48834,144.81.77.215
2015-01-19 16:57:27,Jason,Spencer,jspencerky@theglobeandmail.com,25.33444,117.36194,149.121.240.29
2015-01-22 14:53:50,Margaret,Butler,mbutlerkz@is.gd,21.97473,96.08359,181.218.104.185
2015-01-08 14:30:15,Heather,Clark,hclarkl0@about.com,37.93333,22.8,195.50.67.38
2015-01-20 11:04:41,Richard,Burke,rburkel1@angelfire.com,-22.59861,-48.80028,9.133.131.148
2015-01-16 22:47:58,Bruce,Romero,bromerol2@nbcnews.com,48.14461,-80.03767,197.196.33.134
2015-01-06 13:02:36,Joseph,Griffin,jgriffinl3@networksolutions.com,23.5633,116.2691,171.55.170.213
2015-01-05 20:17:16,Chris,Simpson,csimpsonl4@dailymotion.com,31.44302,118.34893,143.18.31.36
2015-01-19 06:41:49,Shawn,Miller,smillerl5@diigo.com,28.27189,83.58976,112.167.152.177
2015-01-05 21:20:50,Karen,Burns,kburnsl6@yandex.ru,49.505,6.28111,181.99.89.171
2015-01-06 07:32:11,Lori,Stewart,lstewartl7@com.com,55.90818,52.29047,100.38.156.182
2015-01-26 18:35:26,Sarah,Banks,sbanksl8@youtu.be,26.6932,112.66748,175.11.111.27
2015-01-28 00:22:41,Anthony,Carter,acarterl9@live.com,48.7833,2.4667,62.190.217.160
2015-01-24 06:33:35,Earl,Snyder,esnyderla@umich.edu,-6.8006,111.8635,187.43.172.72
2015-01-06 20:26:45,Alice,Ross,arosslb@cisco.com,58.6706,17.1015,39.251.129.95
2015-01-19 01:58:10,Juan,White,jwhitelc@stanford.edu,41.4,-8.5333,39.238.126.242
2015-01-26 08:54:57,Beverly,Cook,bcookld@moonfruit.com,51.28753,15.22894,148.200.45.192
2015-01-11 15:46:38,Benjamin,Arnold,barnoldle@bbb.org,43.48515,44.59063,255.220.205.40
2015-01-22 13:29:43,Lillian,Bell,lbelllf@nsw.gov.au,13.83783,45.83488,62.232.250.176
2015-01-25 17:18:03,Nicholas,Garrett,ngarrettlg@istockphoto.com,-7.42139,109.23444,237.131.193.138
2015-01-04 00:15:14,Billy,Robertson,brobertsonlh@reddit.com,18.52719,-70.29585,248.71.240.244
2015-01-08 13:29:47,Barbara,Franklin,bfranklinli@360.cn,-29.64833,-51.17389,20.3.146.53
2015-01-17 15:38:20,Samuel,Carter,scarterlj@eventbrite.com,22.19236,102.4579,97.132.107.89
2015-01-17 21:07:07,Cheryl,Gardner,cgardnerlk@networksolutions.com,38.7,-7.7833,55.223.152.26
2015-01-05 21:32:42,Irene,Andrews,iandrewsll@narod.ru,15.59911,120.46031,56.173.101.56
2015-01-10 18:25:34,Diana,Wood,dwoodlm@artisteer.com,35.29257,25.43292,164.68.207.168
2015-01-15 14:51:24,Janice,Hamilton,jhamiltonln@accuweather.com,-25.30556,-49.05528,197.118.104.124
2015-01-25 20:00:28,Robert,Harper,rharperlo@weibo.com,26.97361,109.44333,238.34.251.96
2015-01-09 05:16:13,Jeremy,White,jwhitelp@home.pl,14.15,-87.03333,152.98.36.28
2015-01-18 23:28:49,Deborah,Moreno,dmorenolq@linkedin.com,-12.03333,-76.93333,97.123.113.51
2015-01-23 10:11:47,Nicholas,Bailey,nbaileylr@ameblo.jp,31.40015,112.03379,48.2.83.157
2015-01-29 01:45:00,Joan,Alvarez,jalvarezls@prnewswire.com,10.49629,107.16841,246.255.208.79
2015-01-23 05:05:15,Lillian,Moreno,lmorenolt@irs.gov,-16.25,-69.08333,135.233.7.137
2015-01-15 00:32:07,Jane,Palmer,jpalmerlu@so-net.ne.jp,-8.5588,115.0498,141.67.196.104
2015-01-23 19:23:31,Rachel,Brown,rbrownlv@imdb.com,45.05639,43.635,120.237.246.179
2015-01-02 21:35:31,Katherine,Kennedy,kkennedylw@example.com,47.72143,128.87529,107.13.147.183
2015-01-04 18:06:08,Norma,Reed,nreedlx@wikimedia.org,14.64056,104.64992,228.137.38.235
2015-01-23 18:53:17,Benjamin,Rogers,brogersly@hhs.gov,50.58566,16.33181,56.151.136.127
2015-01-22 11:27:31,Kelly,Thomas,kthomaslz@wikipedia.org,39.46667,22.73333,228.172.86.240
2015-01-03 23:10:57,Fred,Carter,fcarterm0@etsy.com,51.96135,21.97137,81.134.177.209
2015-01-08 03:16:39,Jane,Murray,jmurraym1@europa.eu,41.5083,-8.375,63.111.235.163
2015-01-26 12:55:36,Alan,Medina,amedinam2@webmd.com,41.2949,-96.0546,4.163.224.169
2015-01-16 15:52:32,Evelyn,Bradley,ebradleym3@goo.ne.jp,-7.2324,108.1252,86.75.39.245
2015-01-09 11:27:40,Amy,Kelley,akelleym4@java.com,35.37425,36.6033,114.143.229.203
2015-01-03 22:55:41,Andrea,Little,alittlem5@eepurl.com,34.62764,104.84062,69.147.246.129
2015-01-06 17:03:27,Norma,Hudson,nhudsonm6@vistaprint.com,9.86005,-66.38139,84.85.87.222
2015-01-01 15:31:54,Irene,Peterson,ipetersonm7@comsenz.com,41.3075,-8.6132,225.57.177.68
2015-01-10 08:42:02,Mary,Mason,mmasonm8@hibu.com,9.6017,123.86112,118.159.163.95
2015-01-24 13:24:20,Eric,Baker,ebakerm9@google.com.hk,44.56594,17.53216,110.32.142.17
2015-01-22 14:44:11,Craig,Scott,cscottma@toplist.cz,11.38801,122.27931,5.47.9.113
2015-01-30 18:20:04,Brian,Lewis,blewismb@ca.gov,49.07011,16.46492,127.108.138.241
2015-01-29 15:04:51,Harold,George,hgeorgemc@nbcnews.com,59.43028,24.53306,186.80.92.106
2015-01-06 12:53:07,Paula,Cox,pcoxmd@princeton.edu,50.68338,36.23309,132.243.0.126
2015-01-15 11:09:56,Pamela,Day,pdayme@flavors.me,-13.97389,-71.82667,167.240.112.86
2015-01-09 05:14:34,Emily,Ruiz,eruizmf@usda.gov,-1.85238,36.77683,3.250.105.135
2015-01-22 02:38:31,Betty,Lewis,blewismg@usnews.com,12.40694,122.02778,12.133.168.25
2015-01-04 15:46:45,Jack,Lynch,jlynchmh@cornell.edu,59.362,143.21468,8.106.4.15
2015-01-20 05:54:24,Margaret,Bowman,mbowmanmi@whitehouse.gov,-7.54595,112.23307,50.78.254.130
2015-01-08 08:04:10,Betty,Robertson,brobertsonmj@baidu.com,46.51028,15.08056,250.193.212.190
2015-01-01 10:25:36,Eugene,Nichols,enicholsmk@g.co,57.7072,11.9668,255.20.205.5
2015-01-30 16:53:19,Peter,Greene,pgreeneml@npr.org,33.68607,-7.38298,46.16.159.53
2015-01-12 02:48:33,Melissa,Watson,mwatsonmm@businessinsider.com,34.6492,103.54139,177.15.52.85
2015-01-05 06:41:58,Rose,Ward,rwardmn@theatlantic.com,40.76395,47.05953,235.52.132.144
2015-01-12 09:19:12,Ernest,Bailey,ebaileymo@redcross.org,-8.1198,112.2726,89.120.150.118
2015-01-16 18:33:49,Terry,Reyes,treyesmp@jugem.jp,33.5446,-86.9292,205.21.108.93
2015-01-30 13:43:20,Donald,Morgan,dmorganmq@china.com.cn,-7.16378,-78.50027,151.184.12.149
2015-01-15 23:36:41,Jane,Cruz,jcruzmr@bloomberg.com,34.41119,109.5251,38.32.168.55
2015-01-19 03:00:23,Jason,Simpson,jsimpsonms@wufoo.com,8.16453,99.68039,169.171.102.196
2015-01-14 04:42:28,Ralph,Patterson,rpattersonmt@nba.com,16.02781,100.37917,55.121.227.56
2015-01-30 20:37:52,Tammy,Harper,tharpermu@mit.edu,-11.18389,-37.99833,134.126.162.255
2015-01-07 15:44:17,Jane,Harris,jharrismv@house.gov,34.61667,136.08333,76.81.234.157
2015-01-21 16:28:58,Roy,Walker,rwalkermw@cnet.com,25.51667,69.76667,254.81.118.117
2015-01-30 23:41:41,Katherine,Freeman,kfreemanmx@macromedia.com,41.37949,112.64951,8.16.79.207
2015-01-03 04:05:11,Wanda,West,wwestmy@nymag.com,33.85074,105.67641,80.140.238.45
2015-01-24 09:50:09,Joseph,Stanley,jstanleymz@hp.com,45.23422,20.02327,23.144.241.121
2015-01-14 20:41:03,Lisa,Scott,lscottn0@nasa.gov,41.80365,43.48194,73.3.242.30
2015-01-25 03:57:57,Antonio,Nichols,anicholsn1@webmd.com,25.5593,-80.3483,96.51.66.7
2015-01-20 20:47:51,Melissa,Mills,mmillsn2@devhub.com,30.98376,118.86152,10.107.119.52
2015-01-12 14:57:27,Theresa,Washington,twashingtonn3@netscape.com,47.05582,37.31068,3.238.29.140
2015-01-24 15:26:30,Albert,Murray,amurrayn4@spotify.com,1.0871,121.505,85.136.202.242
2015-01-06 19:02:42,Ernest,Banks,ebanksn5@xrea.com,-6.8012,111.9609,251.69.62.137
2015-01-23 03:59:03,Margaret,Riley,mrileyn6@yellowpages.com,15.21231,-85.76996,50.25.186.186
2015-01-29 16:49:42,Joan,Gonzalez,jgonzalezn7@ebay.com,-1.57386,29.04339,52.62.236.130
2015-01-06 17:03:40,Cynthia,Warren,cwarrenn8@noaa.gov,46.155,15.05333,110.131.29.72
2015-01-04 12:45:36,Chris,Robertson,crobertsonn9@hp.com,-16.32667,-48.95278,119.37.249.61
2015-01-04 09:02:05,Louise,Moreno,lmorenona@scientificamerican.com,29.04681,34.6634,100.84.170.36
2015-01-07 02:27:31,Jane,Lewis,jlewisnb@epa.gov,28.66667,110.18333,129.25.255.183
2015-01-05 19:45:02,Fred,Ray,fraync@dagondesign.com,-7.54916,108.83784,72.139.153.93
2015-01-05 01:41:31,Richard,Williamson,rwilliamsonnd@discovery.com,31.53537,34.97192,196.119.250.93
2015-01-14 10:56:55,Irene,Dixon,idixonne@live.com,50.36811,23.74895,55.244.26.167
2015-01-25 06:37:58,Sharon,Holmes,sholmesnf@army.mil,50.58476,30.4898,129.11.149.177
2015-01-19 15:26:05,Cheryl,Vasquez,cvasquezng@nytimes.com,-28.3529,-59.25795,190.181.191.116
2015-01-06 03:03:45,Antonio,Griffin,agriffinnh@ehow.com,51.1595,7.1036,201.72.85.36
2015-01-02 15:23:20,Gerald,Gomez,ggomezni@goodreads.com,24.98405,68.85357,89.238.219.214
2015-01-12 03:16:20,Scott,Hawkins,shawkinsnj@phoca.cz,32.1533,35.04698,86.103.185.242
2015-01-03 14:03:57,William,Crawford,wcrawfordnk@usgs.gov,34.88902,35.88659,159.163.252.44
2015-01-14 20:03:06,Karen,Scott,kscottnl@npr.org,56.05944,24.40361,192.56.198.92
2015-01-08 09:07:29,Jennifer,Arnold,jarnoldnm@bloglines.com,28.23417,82.41278,188.248.202.230
2015-01-23 11:13:31,Steve,Fuller,sfullernn@ed.gov,-32.00115,27.58045,192.178.73.32
2015-01-15 08:14:29,Helen,Ortiz,hortizno@amazon.de,59.3173,18.255,237.210.167.100
2015-01-08 21:45:07,Jeremy,Jones,jjonesnp@pinterest.com,41.01667,70.14361,133.58.152.157
2015-01-04 08:47:09,Sarah,Payne,spaynenq@flavors.me,35.16667,138.68333,177.232.123.71
2015-01-13 08:17:43,Phyllis,Porter,pporternr@altervista.org,57.64301,32.466,149.169.34.137
2015-01-08 14:44:24,Jonathan,Duncan,jduncanns@smh.com.au,49.31425,15.39465,203.38.52.205
2015-01-26 01:48:40,Ann,Schmidt,aschmidtnt@va.gov,-7.01667,113.86667,81.186.6.72
2015-01-15 03:48:20,Joyce,Ray,jraynu@wordpress.com,21.043,-101.569,142.53.142.210
2015-01-09 01:09:25,Bruce,Long,blongnv@sourceforge.net,-5.18333,-68.9,82.33.144.123
2015-01-16 02:48:16,Albert,Reynolds,areynoldsnw@sfgate.com,4.2825,117.9148,210.250.80.214
2015-01-18 04:47:44,Patricia,Russell,prussellnx@umn.edu,-37.814,144.9633,166.32.239.149
2015-01-03 22:38:13,Marie,White,mwhiteny@usnews.com,32.8047,120.20974,227.180.86.111
2015-01-07 19:30:24,Doris,Gray,dgraynz@123-reg.co.uk,25.73421,118.15716,78.25.252.206
2015-01-04 11:38:04,Timothy,Morrison,tmorrisono0@yale.edu,47.7675,21.24,130.140.214.51
2015-01-07 09:18:59,Frances,Carroll,fcarrollo1@163.com,51.61215,18.61487,213.36.20.6
2015-01-16 05:57:34,Martha,Morales,mmoraleso2@digg.com,50.74319,18.01741,0.53.169.231
2015-01-22 20:27:11,Ryan,Diaz,rdiazo3@cmu.edu,-7.37333,-35.23806,196.9.116.229
2015-01-13 22:13:11,Donald,Clark,dclarko4@tripadvisor.com,-24.63333,17.96667,64.196.236.186
2015-01-06 23:30:51,Samuel,Ford,sfordo5@spiegel.de,50.23587,73.06709,34.250.50.58
2015-01-04 17:02:44,Steve,Murray,smurrayo6@rediff.com,28.21766,120.68836,123.82.16.240
2015-01-28 20:54:19,Johnny,Burke,jburkeo7@oracle.com,-34.05274,23.3716,226.18.99.81
2015-01-23 10:03:28,Chris,Gray,cgrayo8@drupal.org,54.69875,44.86678,60.69.205.205
2015-01-23 14:11:15,Nicholas,Riley,nrileyo9@engadget.com,28.88162,120.03308,83.203.187.43
2015-01-11 14:00:07,Brandon,Morales,bmoralesoa@cbslocal.com,41.6868,-83.4394,110.177.106.119
2015-01-20 16:21:46,Dennis,Cooper,dcooperob@qq.com,9.13333,9.78333,121.135.56.37
2015-01-12 03:36:21,Edward,Ryan,eryanoc@sourceforge.net,13.7475,121.39861,195.214.150.84
2015-01-19 05:22:07,Cynthia,Rose,croseod@google.ru,54.9366,58.1757,22.206.185.160
2015-01-29 23:54:38,Ryan,Peterson,rpetersonoe@walmart.com,9.15194,125.58472,194.144.97.141
2015-01-24 01:40:52,Kevin,Carpenter,kcarpenterof@posterous.com,13.84028,-89.44722,186.61.116.46
2015-01-27 02:50:44,Kathleen,Foster,kfosterog@gmpg.org,37.6645,138.92518,121.189.84.113
2015-01-25 13:06:19,Robin,Vasquez,rvasquezoh@amazonaws.com,-7.111,107.0554,140.15.161.31
2015-01-22 04:18:27,Heather,Fowler,hfowleroi@seesaa.net,48.3,-0.6167,38.100.218.147
2015-01-15 17:05:57,Beverly,Kennedy,bkennedyoj@disqus.com,-33.17303,-62.77078,163.161.254.33
2015-01-11 01:25:55,Ryan,Shaw,rshawok@google.it,43.6043,1.4437,230.219.117.3
2015-01-15 05:58:39,Gerald,Williamson,gwilliamsonol@weebly.com,21.27421,106.10069,229.121.138.105
2015-01-23 09:01:30,Wayne,Smith,wsmithom@usnews.com,13.2676,123.5514,31.158.26.223
2015-01-05 23:51:19,Scott,Ford,sfordon@cam.ac.uk,-8.4345,123.0688,123.100.229.14
2015-01-29 10:20:06,Anna,Elliott,aelliottoo@cam.ac.uk,23.97282,109.66678,44.136.31.30
2015-01-27 20:07:00,Anthony,Perez,aperezop@engadget.com,-8.1086,111.7447,229.84.123.35
2015-01-21 08:42:12,Raymond,Roberts,rrobertsoq@cdc.gov,29.6393,118.36792,13.61.242.88
2015-01-03 02:54:53,Betty,Stewart,bstewartor@sakura.ne.jp,17.72271,121.44695,21.5.42.108
2015-01-04 13:58:01,Tammy,Adams,tadamsos@cpanel.net,29.26667,89.9,237.10.205.4
2015-01-25 08:00:11,Donald,Baker,dbakerot@prnewswire.com,50.75185,19.26737,11.104.168.183
2015-01-28 12:17:48,David,Taylor,dtaylorou@ibm.com,36.3,139.98333,216.92.138.25
2015-01-28 22:04:18,Anthony,Hunter,ahunterov@gov.uk,-7.0458,113.6158,102.93.129.180
2015-01-14 20:51:14,Christopher,Stewart,cstewartow@huffingtonpost.com,27.85,112.9,167.32.194.0
2015-01-26 21:01:42,Ruby,Fernandez,rfernandezox@t.co,29.80919,111.37538,128.53.12.20
2015-01-06 02:39:49,Patricia,Montgomery,pmontgomeryoy@barnesandnoble.com,52.59278,21.4584,122.210.80.157
2015-01-22 12:01:59,Ronald,Gray,rgrayoz@t.co,41.2028,-8.4444,75.174.137.76
2015-01-26 16:07:36,Joe,Porter,jporterp0@jigsy.com,39.61667,98.6,91.199.204.146
2015-01-21 02:59:49,Lois,Riley,lrileyp1@blogs.com,30.75398,108.36958,198.157.53.140
2015-01-15 23:26:25,Stephanie,Garza,sgarzap2@nature.com,19.59734,109.72075,244.89.2.59
2015-01-30 21:53:06,Victor,Rivera,vriverap3@bloglines.com,45.99923,130.51228,149.210.165.159
2015-01-11 07:24:51,Jack,Stanley,jstanleyp4@linkedin.com,44.62624,129.57782,37.167.230.186
2015-01-14 19:21:51,Laura,Olson,lolsonp5@google.nl,39.61217,113.48139,161.168.254.155
2015-01-02 12:12:25,Carol,Wagner,cwagnerp6@wikipedia.org,6.9747,118.5144,123.22.162.100
2015-01-28 19:00:08,Mary,Greene,mgreenep7@issuu.com,19.7117,110.73109,70.181.127.116
2015-01-12 22:25:56,Emily,Gibson,egibsonp8@cdc.gov,31.22238,108.79377,60.114.54.158
2015-01-02 02:32:47,Lisa,Edwards,ledwardsp9@upenn.edu,14.79781,42.95452,223.226.240.149
2015-01-21 14:35:47,Roger,Black,rblackpa@moonfruit.com,21.02857,105.85064,160.101.89.132
2015-01-26 08:45:56,Marie,Peters,mpeterspb@jugem.jp,36.1468,49.218,86.110.191.208
2015-01-12 18:10:27,Mary,Hall,mhallpc@technorati.com,9.3692,122.7702,186.86.8.149
2015-01-06 13:46:59,Phyllis,Washington,pwashingtonpd@seattletimes.com,10.1165,123.6072,149.255.150.64
2015-01-26 01:42:16,Nicole,Chapman,nchapmanpe@tripod.com,7.49167,125.72806,140.90.5.67
2015-01-25 16:08:05,Theresa,Price,tpricepf@cmu.edu,41.2784,-8.2618,163.96.104.65
2015-01-25 06:39:27,Ruth,Howell,rhowellpg@ycombinator.com,-6.8914,106.4291,201.37.55.74
2015-01-29 10:35:27,Clarence,Miller,cmillerph@tripod.com,51.24376,20.76871,163.192.91.162
2015-01-21 23:36:18,Martha,Jordan,mjordanpi@twitpic.com,30.44076,92.04924,147.79.152.154
2015-01-14 21:09:01,Aaron,Stevens,astevenspj@google.com.br,32.76154,119.59314,227.71.184.239
2015-01-29 04:01:01,Jimmy,Burke,jburkepk@yandex.ru,34.50267,103.12422,114.39.17.60
2015-01-30 02:52:05,Debra,Mason,dmasonpl@blogspot.com,40.1689,-8.8796,15.200.254.4
2015-01-09 15:17:52,Mark,Grant,mgrantpm@clickbank.net,22.34175,-80.27028,242.195.251.121
2015-01-07 19:22:31,Wayne,Gilbert,wgilbertpn@instagram.com,11.14,122.7236,74.99.137.76
2015-01-01 02:14:16,Anne,Diaz,adiazpo@woothemes.com,29.35804,30.68142,165.171.109.42
2015-01-10 03:15:08,Eugene,Andrews,eandrewspp@uol.com.br,41.8172,124.04135,79.47.245.164
2015-01-30 23:17:23,Julie,Washington,jwashingtonpq@yale.edu,-7.2779,107.8997,136.230.224.153
2015-01-12 06:28:03,Annie,Hart,ahartpr@youku.com,-1.02167,-46.635,13.103.253.71
2015-01-04 05:37:09,Rachel,Fowler,rfowlerps@yahoo.com,24.19167,55.76056,227.96.178.226
2015-01-23 19:06:58,Shawn,Powell,spowellpt@reverbnation.com,55.35917,21.70222,200.234.181.84
2015-01-05 10:38:37,David,Henry,dhenrypu@zimbio.com,-6.6602,111.1025,94.168.153.79
2015-01-20 14:20:06,Kathleen,Wagner,kwagnerpv@123-reg.co.uk,44.0834,41.9763,248.96.146.168
2015-01-12 05:08:05,Mildred,Frazier,mfrazierpw@arstechnica.com,14.61667,-89.61667,67.251.81.141
2015-01-27 22:51:45,Sandra,Berry,sberrypx@springer.com,-3.20333,-52.20639,69.117.122.115
2015-01-20 11:47:38,Andrea,Russell,arussellpy@drupal.org,10.09866,-84.37824,183.211.34.228
2015-01-04 13:50:07,Jason,Turner,jturnerpz@arizona.edu,23.70944,120.54333,175.100.0.191
2015-01-22 14:57:31,Chris,Evans,cevansq0@topsy.com,63.4305,10.3951,180.130.125.216
2015-01-28 01:51:49,Lillian,Gibson,lgibsonq1@amazon.co.jp,52.91661,22.51712,141.48.230.253
2015-01-01 18:30:37,Adam,Morales,amoralesq2@globo.com,49.67718,19.62321,211.20.238.5
2015-01-07 18:06:07,Mildred,Hansen,mhansenq3@google.co.jp,46.00278,14.03056,203.203.224.64
2015-01-30 07:18:22,Lawrence,Perez,lperezq4@marketwatch.com,28.14083,106.03771,64.79.51.45
2015-01-24 19:03:42,David,James,djamesq5@cam.ac.uk,48.77914,38.57903,182.4.156.235
2015-01-30 11:56:41,Virginia,Hawkins,vhawkinsq6@google.com.br,47.31187,130.28027,121.5.189.29
2015-01-07 07:12:01,Donald,Morris,dmorrisq7@chron.com,51.6561,35.9314,69.155.245.159
2015-01-18 09:01:32,Jacqueline,Watkins,jwatkinsq8@jigsy.com,30.29402,108.03296,234.116.45.141
2015-01-12 03:34:06,Antonio,Carroll,acarrollq9@dion.ne.jp,42.6149,-73.9708,111.243.254.145
2015-01-29 07:13:26,Fred,Clark,fclarkqa@acquirethisname.com,-6.7419,105.8804,255.216.49.11
2015-01-26 05:04:32,Judy,Willis,jwillisqb@feedburner.com,29.28917,121.42472,236.168.91.115
2015-01-26 04:03:22,Maria,Walker,mwalkerqc@icio.us,65.66667,25.05,187.77.205.196
2015-01-30 07:38:01,Eugene,Carroll,ecarrollqd@zdnet.com,-7.04486,113.73422,130.69.87.144
2015-01-07 11:21:22,Jerry,Ross,jrossqe@booking.com,45.65639,40.76528,182.228.73.72
2015-01-20 11:55:11,Benjamin,Jordan,bjordanqf@mayoclinic.com,57.7072,11.9668,146.213.15.172
2015-01-10 18:19:14,Phyllis,Hayes,phayesqg@ca.gov,39.15064,20.73636,115.14.106.202
2015-01-02 19:18:04,Rebecca,Hunter,rhunterqh@goodreads.com,13.62679,-85.8254,93.89.61.91
2015-01-14 23:16:01,Judith,Washington,jwashingtonqi@cdbaby.com,45.8315,1.2578,134.26.65.78
2015-01-21 08:47:01,Carlos,Stanley,cstanleyqj@msu.edu,46.24556,14.41972,242.128.233.143
2015-01-25 20:45:28,Kathy,Ward,kwardqk@smugmug.com,30.5422,-84.1413,208.91.145.204
2015-01-04 02:41:48,Phillip,Gonzales,pgonzalesql@disqus.com,-23.05389,-46.35806,74.146.199.252
2015-01-17 22:12:09,Jose,Mccoy,jmccoyqm@miitbeian.gov.cn,38.76829,76.31012,65.145.81.221
2015-01-28 16:03:35,Ralph,Austin,raustinqn@yahoo.com,28.62019,120.05414,84.114.92.96
2015-01-19 14:51:32,Chris,Dunn,cdunnqo@gizmodo.com,34.71453,109.76505,167.80.48.217
2015-01-24 18:15:11,Benjamin,Little,blittleqp@webs.com,46.06667,121.48333,111.142.227.18
2015-01-13 02:23:05,Susan,White,swhiteqq@miitbeian.gov.cn,52.9492,108.2217,239.89.194.227
2015-01-27 00:13:13,Ryan,Miller,rmillerqr@zimbio.com,9.33361,125.9775,93.43.100.59
2015-01-25 20:45:27,Johnny,Gutierrez,jgutierrezqs@cocolog-nifty.com,55.3689,27.4686,249.230.57.71
2015-01-18 11:30:55,Lillian,Hayes,lhayesqt@google.ca,29.3875,-98.5245,10.243.172.9
2015-01-11 10:57:49,Carl,Perry,cperryqu@1und1.de,51.2167,4.4167,168.84.179.28
2015-01-22 04:30:41,Heather,Sanchez,hsanchezqv@merriam-webster.com,8.01909,-71.76595,166.109.109.93
2015-01-29 02:25:20,Mildred,Hill,mhillqw@china.com.cn,29.06816,107.98681,249.108.131.243
2015-01-12 04:24:52,Lois,Bowman,lbowmanqx@state.gov,14.41142,102.85936,11.24.33.121
2015-01-12 13:45:32,Bobby,Howell,bhowellqy@vistaprint.com,48.8498,2.5627,245.220.224.51
2015-01-17 10:24:28,Eric,Ramirez,eramirezqz@chron.com,28.67368,121.37781,231.16.49.15
2015-01-04 17:42:34,Rose,Taylor,rtaylorr0@deliciousdays.com,37.95,23.7,251.154.81.172
2015-01-01 23:01:06,Wayne,Morales,wmoralesr1@earthlink.net,58.38062,26.72509,125.3.51.40
2015-01-17 11:04:03,Arthur,Adams,aadamsr2@soup.io,35.36211,35.92759,93.31.121.80
2015-01-02 13:08:28,Jimmy,Reynolds,jreynoldsr3@bloglines.com,-8.5324,115.1246,130.31.231.230
2015-01-26 20:18:38,Bobby,Gordon,bgordonr4@deviantart.com,23.99916,115.69689,76.183.103.65
2015-01-26 20:03:17,Ryan,Black,rblackr5@weebly.com,40.4956,-8.6735,69.50.20.231
2015-01-12 18:19:28,Sharon,Russell,srussellr6@noaa.gov,32.17792,121.04906,2.32.193.209
2015-01-13 06:51:16,Shirley,Castillo,scastillor7@reddit.com,39.31583,112.4225,139.166.29.30
2015-01-04 05:59:58,Jose,Bowman,jbowmanr8@weebly.com,49.18989,15.06734,216.46.58.165
2015-01-20 15:53:52,Linda,Bailey,lbaileyr9@skyrock.com,15.39632,-90.56513,2.52.67.3
2015-01-11 18:01:41,Tina,Miller,tmillerra@dropbox.com,28.63333,87.08333,152.36.251.177
2015-01-02 12:54:01,Janice,Jenkins,jjenkinsrb@comcast.net,41.5167,-8.6833,120.178.93.123
2015-01-22 20:10:26,Adam,Mills,amillsrc@tmall.com,-7.71556,110.35556,159.147.53.188
2015-01-19 17:45:30,Marie,Black,mblackrd@fastcompany.com,16.9,121.56667,159.197.30.94
2015-01-04 17:58:56,Tammy,Kim,tkimre@bluehost.com,20.13053,105.67454,123.138.168.203
2015-01-14 15:00:59,Jacqueline,Wells,jwellsrf@skype.com,9.59306,41.86611,246.241.64.68
2015-01-16 21:33:05,Richard,Turner,rturnerrg@shutterfly.com,-8.81833,-35.18639,180.224.178.158
2015-01-05 19:09:34,Emily,Carpenter,ecarpenterrh@edublogs.org,-20.62639,-49.64917,25.19.34.67
2015-01-28 03:03:24,Bobby,Mccoy,bmccoyri@ftc.gov,-6.9783,111.6852,222.109.33.21
2015-01-30 17:46:10,Scott,Hanson,shansonrj@naver.com,40.67259,43.95783,76.5.191.171
2015-01-01 08:09:24,Harry,Lane,hlanerk@soundcloud.com,56.7446,15.9071,91.53.166.94
2015-01-25 02:48:21,Katherine,Lynch,klynchrl@ucla.edu,-4.36139,14.76444,173.207.247.128
2015-01-21 16:40:21,James,Payne,jpaynerm@twitter.com,45.58338,-70.88234,144.102.188.120
2015-01-01 13:52:59,Janet,Wells,jwellsrn@java.com,29.74409,-7.973,188.244.126.25
2015-01-19 12:39:04,Norma,Bryant,nbryantro@vinaora.com,34.6725,-92.3529,18.183.7.219
2015-01-07 22:52:22,Emily,Lee,eleerp@rambler.ru,4.5016,9.5671,26.3.87.109
2015-01-24 20:58:47,Edward,Garza,egarzarq@yellowbook.com,37.8008,48.9037,44.65.36.149
2015-01-23 11:33:31,Michael,Shaw,mshawrr@pcworld.com,48.6,15.15,35.240.166.197
